^D:\OSIPOV\PROGRAMMINGII\GAP-275-01-PROGRAMMING-FOR-GAMES-2\MODULE_4\CLASSPROJECT\MEMORYGAME\MEMORYGAME\MAIN.CPP
/c /ISDL2_mixer\include /ISDL2\include /ZI /nologo /W3 /WX- /sdl /Od /Oy- /D WIN32 /D _DEBUG /D _WINDOWS /D _UNICODE /D UNICODE /Gm /EHsc /RTC1 /MDd /GS /fp:precise /Zc:wchar_t /Zc:forScope /Fo"DEBUG\\" /Fd"DEBUG\VC120.PDB" /Gd /TP /analyze- D:\OSIPOV\PROGRAMMINGII\GAP-275-01-PROGRAMMING-FOR-GAMES-2\MODULE_4\CLASSPROJECT\MEMORYGAME\MEMORYGAME\MAIN.CPP
^D:\OSIPOV\PROGRAMMINGII\GAP-275-01-PROGRAMMING-FOR-GAMES-2\MODULE_4\CLASSPROJECT\MEMORYGAME\MEMORYGAME\MEMORYGAME.CPP
/c /ISDL2_mixer\include /ISDL2\include /ZI /nologo /W3 /WX- /sdl /Od /Oy- /D WIN32 /D _DEBUG /D _WINDOWS /D _UNICODE /D UNICODE /Gm /EHsc /RTC1 /MDd /GS /fp:precise /Zc:wchar_t /Zc:forScope /Fo"DEBUG\\" /Fd"DEBUG\VC120.PDB" /Gd /TP /analyze- D:\OSIPOV\PROGRAMMINGII\GAP-275-01-PROGRAMMING-FOR-GAMES-2\MODULE_4\CLASSPROJECT\MEMORYGAME\MEMORYGAME\MEMORYGAME.CPP
