^D:\OSIPOV\GAP-275-01-PROGRAMMING-FOR-GAMES-2\MODULE_4\CLASSPROJECT\MEMORYGAME\MEMORYGAME\DEBUG\MAIN.OBJ|D:\OSIPOV\GAP-275-01-PROGRAMMING-FOR-GAMES-2\MODULE_4\CLASSPROJECT\MEMORYGAME\MEMORYGAME\DEBUG\MEMORYGAME.OBJ
D:\OSIPOV\GAP-275-01-PROGRAMMING-FOR-GAMES-2\MODULE_4\CLASSPROJECT\MEMORYGAME\DEBUG\MEMORYGAME.ILK
D:\OSIPOV\GAP-275-01-PROGRAMMING-FOR-GAMES-2\MODULE_4\CLASSPROJECT\MEMORYGAME\DEBUG\MEMORYGAME.EXE
D:\OSIPOV\GAP-275-01-PROGRAMMING-FOR-GAMES-2\MODULE_4\CLASSPROJECT\MEMORYGAME\DEBUG\MEMORYGAME.PDB
