﻿Build started 9/22/2015 10:03:34 PM.
     1>Project "D:\Osipov\bitbucket\gap-275-01-programming-for-games-2\Module_3\ClassProject\MemoryGame\MemoryGame\MemoryGame.vcxproj" on node 2 (Build target(s)).
     1>ClCompile:
         C:\Program Files (x86)\Microsoft Visual Studio 12.0\VC\bin\CL.exe /c /ZI /nologo /W3 /WX- /sdl /Od /Oy- /D WIN32 /D _DEBUG /D _WINDOWS /D _UNICODE /D UNICODE /Gm /EHsc /RTC1 /MDd /GS /fp:precise /Zc:wchar_t /Zc:forScope /Fo"Debug\\" /Fd"Debug\vc120.pdb" /Gd /TP /analyze- /errorReport:prompt MemoryGame.cpp
         MemoryGame.cpp
       Link:
         C:\Program Files (x86)\Microsoft Visual Studio 12.0\VC\bin\link.exe /ERRORREPORT:PROMPT /OUT:"D:\Osipov\bitbucket\gap-275-01-programming-for-games-2\Module_3\ClassProject\MemoryGame\Debug\MemoryGame.exe" /INCREMENTAL /NOLOGO Xinput.lib kernel32.lib user32.lib gdi32.lib winspool.lib comdlg32.lib advapi32.lib shell32.lib ole32.lib oleaut32.lib uuid.lib odbc32.lib odbccp32.lib /MANIFEST /MANIFESTUAC:"level='asInvoker' uiAccess='false'" /manifest:embed /DEBUG /PDB:"D:\Osipov\bitbucket\gap-275-01-programming-for-games-2\Module_3\ClassProject\MemoryGame\Debug\MemoryGame.pdb" /SUBSYSTEM:WINDOWS /TLBID:1 /DYNAMICBASE /NXCOMPAT /IMPLIB:"D:\Osipov\bitbucket\gap-275-01-programming-for-games-2\Module_3\ClassProject\MemoryGame\Debug\MemoryGame.lib" /MACHINE:X86 Debug\Main.obj
         Debug\MemoryGame.obj
         MemoryGame.vcxproj -> D:\Osipov\bitbucket\gap-275-01-programming-for-games-2\Module_3\ClassProject\MemoryGame\Debug\MemoryGame.exe
     1>Done Building Project "D:\Osipov\bitbucket\gap-275-01-programming-for-games-2\Module_3\ClassProject\MemoryGame\MemoryGame\MemoryGame.vcxproj" (Build target(s)).

Build succeeded.

Time Elapsed 00:00:00.85
