^D:\WORK\SCHOOL\BITBUCKET\GAP-275-01-PROGRAMMING-FOR-GAMES-2\MODULE_15\OPENGLDEMO\MAIN.CPP
C:\PROGRAM FILES (X86)\MICROSOFT VISUAL STUDIO 12.0\VC\BIN\1033\CLUI.DLL
C:\WINDOWS\GLOBALIZATION\SORTING\SORTDEFAULT.NLS
C:\WINDOWS\SYSTEM32\TZRES.DLL
D:\WORK\SCHOOL\BITBUCKET\GAP-275-01-PROGRAMMING-FOR-GAMES-2\MODULE_15\OPENGLDEMO\SDL2\INCLUDE\SDL.H
D:\WORK\SCHOOL\BITBUCKET\GAP-275-01-PROGRAMMING-FOR-GAMES-2\MODULE_15\OPENGLDEMO\SDL2\INCLUDE\SDL_MAIN.H
D:\WORK\SCHOOL\BITBUCKET\GAP-275-01-PROGRAMMING-FOR-GAMES-2\MODULE_15\OPENGLDEMO\SDL2\INCLUDE\SDL_STDINC.H
D:\WORK\SCHOOL\BITBUCKET\GAP-275-01-PROGRAMMING-FOR-GAMES-2\MODULE_15\OPENGLDEMO\SDL2\INCLUDE\SDL_CONFIG.H
D:\WORK\SCHOOL\BITBUCKET\GAP-275-01-PROGRAMMING-FOR-GAMES-2\MODULE_15\OPENGLDEMO\SDL2\INCLUDE\SDL_PLATFORM.H
C:\PROGRAM FILES (X86)\WINDOWS KITS\8.1\INCLUDE\SHARED\WINAPIFAMILY.H
D:\WORK\SCHOOL\BITBUCKET\GAP-275-01-PROGRAMMING-FOR-GAMES-2\MODULE_15\OPENGLDEMO\SDL2\INCLUDE\BEGIN_CODE.H
D:\WORK\SCHOOL\BITBUCKET\GAP-275-01-PROGRAMMING-FOR-GAMES-2\MODULE_15\OPENGLDEMO\SDL2\INCLUDE\CLOSE_CODE.H
C:\PROGRAM FILES (X86)\MICROSOFT VISUAL STUDIO 12.0\VC\INCLUDE\STDDEF.H
C:\PROGRAM FILES (X86)\MICROSOFT VISUAL STUDIO 12.0\VC\INCLUDE\CRTDEFS.H
C:\PROGRAM FILES (X86)\MICROSOFT VISUAL STUDIO 12.0\VC\INCLUDE\SAL.H
C:\PROGRAM FILES (X86)\MICROSOFT VISUAL STUDIO 12.0\VC\INCLUDE\CONCURRENCYSAL.H
C:\PROGRAM FILES (X86)\MICROSOFT VISUAL STUDIO 12.0\VC\INCLUDE\VADEFS.H
C:\PROGRAM FILES (X86)\MICROSOFT VISUAL STUDIO 12.0\VC\INCLUDE\STDARG.H
D:\WORK\SCHOOL\BITBUCKET\GAP-275-01-PROGRAMMING-FOR-GAMES-2\MODULE_15\OPENGLDEMO\SDL2\INCLUDE\SDL_ASSERT.H
D:\WORK\SCHOOL\BITBUCKET\GAP-275-01-PROGRAMMING-FOR-GAMES-2\MODULE_15\OPENGLDEMO\SDL2\INCLUDE\SDL_ATOMIC.H
D:\WORK\SCHOOL\BITBUCKET\GAP-275-01-PROGRAMMING-FOR-GAMES-2\MODULE_15\OPENGLDEMO\SDL2\INCLUDE\SDL_AUDIO.H
D:\WORK\SCHOOL\BITBUCKET\GAP-275-01-PROGRAMMING-FOR-GAMES-2\MODULE_15\OPENGLDEMO\SDL2\INCLUDE\SDL_ERROR.H
D:\WORK\SCHOOL\BITBUCKET\GAP-275-01-PROGRAMMING-FOR-GAMES-2\MODULE_15\OPENGLDEMO\SDL2\INCLUDE\SDL_ENDIAN.H
D:\WORK\SCHOOL\BITBUCKET\GAP-275-01-PROGRAMMING-FOR-GAMES-2\MODULE_15\OPENGLDEMO\SDL2\INCLUDE\SDL_MUTEX.H
D:\WORK\SCHOOL\BITBUCKET\GAP-275-01-PROGRAMMING-FOR-GAMES-2\MODULE_15\OPENGLDEMO\SDL2\INCLUDE\SDL_THREAD.H
C:\PROGRAM FILES (X86)\MICROSOFT VISUAL STUDIO 12.0\VC\INCLUDE\PROCESS.H
D:\WORK\SCHOOL\BITBUCKET\GAP-275-01-PROGRAMMING-FOR-GAMES-2\MODULE_15\OPENGLDEMO\SDL2\INCLUDE\SDL_RWOPS.H
D:\WORK\SCHOOL\BITBUCKET\GAP-275-01-PROGRAMMING-FOR-GAMES-2\MODULE_15\OPENGLDEMO\SDL2\INCLUDE\SDL_CLIPBOARD.H
D:\WORK\SCHOOL\BITBUCKET\GAP-275-01-PROGRAMMING-FOR-GAMES-2\MODULE_15\OPENGLDEMO\SDL2\INCLUDE\SDL_CPUINFO.H
C:\PROGRAM FILES (X86)\MICROSOFT VISUAL STUDIO 12.0\VC\INCLUDE\INTRIN.H
C:\PROGRAM FILES (X86)\MICROSOFT VISUAL STUDIO 12.0\VC\INCLUDE\SETJMP.H
C:\PROGRAM FILES (X86)\MICROSOFT VISUAL STUDIO 12.0\VC\INCLUDE\IMMINTRIN.H
C:\PROGRAM FILES (X86)\MICROSOFT VISUAL STUDIO 12.0\VC\INCLUDE\WMMINTRIN.H
C:\PROGRAM FILES (X86)\MICROSOFT VISUAL STUDIO 12.0\VC\INCLUDE\NMMINTRIN.H
C:\PROGRAM FILES (X86)\MICROSOFT VISUAL STUDIO 12.0\VC\INCLUDE\SMMINTRIN.H
C:\PROGRAM FILES (X86)\MICROSOFT VISUAL STUDIO 12.0\VC\INCLUDE\TMMINTRIN.H
C:\PROGRAM FILES (X86)\MICROSOFT VISUAL STUDIO 12.0\VC\INCLUDE\PMMINTRIN.H
C:\PROGRAM FILES (X86)\MICROSOFT VISUAL STUDIO 12.0\VC\INCLUDE\EMMINTRIN.H
C:\PROGRAM FILES (X86)\MICROSOFT VISUAL STUDIO 12.0\VC\INCLUDE\XMMINTRIN.H
C:\PROGRAM FILES (X86)\MICROSOFT VISUAL STUDIO 12.0\VC\INCLUDE\MMINTRIN.H
C:\PROGRAM FILES (X86)\MICROSOFT VISUAL STUDIO 12.0\VC\INCLUDE\MALLOC.H
C:\PROGRAM FILES (X86)\MICROSOFT VISUAL STUDIO 12.0\VC\INCLUDE\AMMINTRIN.H
C:\PROGRAM FILES (X86)\MICROSOFT VISUAL STUDIO 12.0\VC\INCLUDE\MM3DNOW.H
D:\WORK\SCHOOL\BITBUCKET\GAP-275-01-PROGRAMMING-FOR-GAMES-2\MODULE_15\OPENGLDEMO\SDL2\INCLUDE\SDL_EVENTS.H
D:\WORK\SCHOOL\BITBUCKET\GAP-275-01-PROGRAMMING-FOR-GAMES-2\MODULE_15\OPENGLDEMO\SDL2\INCLUDE\SDL_VIDEO.H
D:\WORK\SCHOOL\BITBUCKET\GAP-275-01-PROGRAMMING-FOR-GAMES-2\MODULE_15\OPENGLDEMO\SDL2\INCLUDE\SDL_PIXELS.H
D:\WORK\SCHOOL\BITBUCKET\GAP-275-01-PROGRAMMING-FOR-GAMES-2\MODULE_15\OPENGLDEMO\SDL2\INCLUDE\SDL_RECT.H
D:\WORK\SCHOOL\BITBUCKET\GAP-275-01-PROGRAMMING-FOR-GAMES-2\MODULE_15\OPENGLDEMO\SDL2\INCLUDE\SDL_SURFACE.H
D:\WORK\SCHOOL\BITBUCKET\GAP-275-01-PROGRAMMING-FOR-GAMES-2\MODULE_15\OPENGLDEMO\SDL2\INCLUDE\SDL_BLENDMODE.H
D:\WORK\SCHOOL\BITBUCKET\GAP-275-01-PROGRAMMING-FOR-GAMES-2\MODULE_15\OPENGLDEMO\SDL2\INCLUDE\SDL_KEYBOARD.H
D:\WORK\SCHOOL\BITBUCKET\GAP-275-01-PROGRAMMING-FOR-GAMES-2\MODULE_15\OPENGLDEMO\SDL2\INCLUDE\SDL_KEYCODE.H
D:\WORK\SCHOOL\BITBUCKET\GAP-275-01-PROGRAMMING-FOR-GAMES-2\MODULE_15\OPENGLDEMO\SDL2\INCLUDE\SDL_SCANCODE.H
D:\WORK\SCHOOL\BITBUCKET\GAP-275-01-PROGRAMMING-FOR-GAMES-2\MODULE_15\OPENGLDEMO\SDL2\INCLUDE\SDL_MOUSE.H
D:\WORK\SCHOOL\BITBUCKET\GAP-275-01-PROGRAMMING-FOR-GAMES-2\MODULE_15\OPENGLDEMO\SDL2\INCLUDE\SDL_JOYSTICK.H
D:\WORK\SCHOOL\BITBUCKET\GAP-275-01-PROGRAMMING-FOR-GAMES-2\MODULE_15\OPENGLDEMO\SDL2\INCLUDE\SDL_GAMECONTROLLER.H
D:\WORK\SCHOOL\BITBUCKET\GAP-275-01-PROGRAMMING-FOR-GAMES-2\MODULE_15\OPENGLDEMO\SDL2\INCLUDE\SDL_QUIT.H
D:\WORK\SCHOOL\BITBUCKET\GAP-275-01-PROGRAMMING-FOR-GAMES-2\MODULE_15\OPENGLDEMO\SDL2\INCLUDE\SDL_GESTURE.H
D:\WORK\SCHOOL\BITBUCKET\GAP-275-01-PROGRAMMING-FOR-GAMES-2\MODULE_15\OPENGLDEMO\SDL2\INCLUDE\SDL_TOUCH.H
D:\WORK\SCHOOL\BITBUCKET\GAP-275-01-PROGRAMMING-FOR-GAMES-2\MODULE_15\OPENGLDEMO\SDL2\INCLUDE\SDL_FILESYSTEM.H
D:\WORK\SCHOOL\BITBUCKET\GAP-275-01-PROGRAMMING-FOR-GAMES-2\MODULE_15\OPENGLDEMO\SDL2\INCLUDE\SDL_HAPTIC.H
D:\WORK\SCHOOL\BITBUCKET\GAP-275-01-PROGRAMMING-FOR-GAMES-2\MODULE_15\OPENGLDEMO\SDL2\INCLUDE\SDL_HINTS.H
D:\WORK\SCHOOL\BITBUCKET\GAP-275-01-PROGRAMMING-FOR-GAMES-2\MODULE_15\OPENGLDEMO\SDL2\INCLUDE\SDL_LOADSO.H
D:\WORK\SCHOOL\BITBUCKET\GAP-275-01-PROGRAMMING-FOR-GAMES-2\MODULE_15\OPENGLDEMO\SDL2\INCLUDE\SDL_LOG.H
D:\WORK\SCHOOL\BITBUCKET\GAP-275-01-PROGRAMMING-FOR-GAMES-2\MODULE_15\OPENGLDEMO\SDL2\INCLUDE\SDL_MESSAGEBOX.H
D:\WORK\SCHOOL\BITBUCKET\GAP-275-01-PROGRAMMING-FOR-GAMES-2\MODULE_15\OPENGLDEMO\SDL2\INCLUDE\SDL_POWER.H
D:\WORK\SCHOOL\BITBUCKET\GAP-275-01-PROGRAMMING-FOR-GAMES-2\MODULE_15\OPENGLDEMO\SDL2\INCLUDE\SDL_RENDER.H
D:\WORK\SCHOOL\BITBUCKET\GAP-275-01-PROGRAMMING-FOR-GAMES-2\MODULE_15\OPENGLDEMO\SDL2\INCLUDE\SDL_SYSTEM.H
D:\WORK\SCHOOL\BITBUCKET\GAP-275-01-PROGRAMMING-FOR-GAMES-2\MODULE_15\OPENGLDEMO\SDL2\INCLUDE\SDL_TIMER.H
D:\WORK\SCHOOL\BITBUCKET\GAP-275-01-PROGRAMMING-FOR-GAMES-2\MODULE_15\OPENGLDEMO\SDL2\INCLUDE\SDL_VERSION.H
D:\WORK\SCHOOL\BITBUCKET\GAP-275-01-PROGRAMMING-FOR-GAMES-2\MODULE_15\OPENGLDEMO\GLEW-1.13.0\INCLUDE\GL\GLEW.H
C:\PROGRAM FILES (X86)\WINDOWS KITS\8.1\INCLUDE\UM\GL\GLU.H
C:\PROGRAM FILES (X86)\WINDOWS KITS\8.1\INCLUDE\UM\GL\GL.H
D:\WORK\SCHOOL\BITBUCKET\GAP-275-01-PROGRAMMING-FOR-GAMES-2\MODULE_15\OPENGLDEMO\SDL2\INCLUDE\SDL_OPENGL.H
C:\PROGRAM FILES (X86)\WINDOWS KITS\8.1\INCLUDE\UM\WINDOWS.H
C:\PROGRAM FILES (X86)\WINDOWS KITS\8.1\INCLUDE\SHARED\SDKDDKVER.H
C:\PROGRAM FILES (X86)\MICROSOFT VISUAL STUDIO 12.0\VC\INCLUDE\EXCPT.H
C:\PROGRAM FILES (X86)\WINDOWS KITS\8.1\INCLUDE\SHARED\WINDEF.H
C:\PROGRAM FILES (X86)\WINDOWS KITS\8.1\INCLUDE\SHARED\MINWINDEF.H
C:\PROGRAM FILES (X86)\WINDOWS KITS\8.1\INCLUDE\SHARED\SPECSTRINGS.H
C:\PROGRAM FILES (X86)\WINDOWS KITS\8.1\INCLUDE\SHARED\SPECSTRINGS_STRICT.H
C:\PROGRAM FILES (X86)\WINDOWS KITS\8.1\INCLUDE\SHARED\SPECSTRINGS_UNDEF.H
C:\PROGRAM FILES (X86)\WINDOWS KITS\8.1\INCLUDE\SHARED\DRIVERSPECS.H
C:\PROGRAM FILES (X86)\WINDOWS KITS\8.1\INCLUDE\SHARED\SDV_DRIVERSPECS.H
C:\PROGRAM FILES (X86)\WINDOWS KITS\8.1\INCLUDE\UM\WINNT.H
C:\PROGRAM FILES (X86)\MICROSOFT VISUAL STUDIO 12.0\VC\INCLUDE\CTYPE.H
C:\PROGRAM FILES (X86)\WINDOWS KITS\8.1\INCLUDE\SHARED\KERNELSPECS.H
C:\PROGRAM FILES (X86)\WINDOWS KITS\8.1\INCLUDE\SHARED\BASETSD.H
C:\PROGRAM FILES (X86)\WINDOWS KITS\8.1\INCLUDE\SHARED\GUIDDEF.H
C:\PROGRAM FILES (X86)\MICROSOFT VISUAL STUDIO 12.0\VC\INCLUDE\STRING.H
C:\PROGRAM FILES (X86)\WINDOWS KITS\8.1\INCLUDE\SHARED\PSHPACK4.H
C:\PROGRAM FILES (X86)\WINDOWS KITS\8.1\INCLUDE\SHARED\POPPACK.H
C:\PROGRAM FILES (X86)\WINDOWS KITS\8.1\INCLUDE\SHARED\PSHPACK2.H
C:\PROGRAM FILES (X86)\WINDOWS KITS\8.1\INCLUDE\SHARED\PSHPACK8.H
C:\PROGRAM FILES (X86)\WINDOWS KITS\8.1\INCLUDE\SHARED\APISET.H
C:\PROGRAM FILES (X86)\WINDOWS KITS\8.1\INCLUDE\SHARED\KTMTYPES.H
C:\PROGRAM FILES (X86)\WINDOWS KITS\8.1\INCLUDE\UM\WINBASE.H
C:\PROGRAM FILES (X86)\WINDOWS KITS\8.1\INCLUDE\SHARED\APISETCCONV.H
C:\PROGRAM FILES (X86)\WINDOWS KITS\8.1\INCLUDE\UM\MINWINBASE.H
C:\PROGRAM FILES (X86)\WINDOWS KITS\8.1\INCLUDE\UM\PROCESSENV.H
C:\PROGRAM FILES (X86)\WINDOWS KITS\8.1\INCLUDE\UM\FILEAPI.H
C:\PROGRAM FILES (X86)\WINDOWS KITS\8.1\INCLUDE\UM\DEBUGAPI.H
C:\PROGRAM FILES (X86)\WINDOWS KITS\8.1\INCLUDE\UM\UTILAPISET.H
C:\PROGRAM FILES (X86)\WINDOWS KITS\8.1\INCLUDE\UM\HANDLEAPI.H
C:\PROGRAM FILES (X86)\WINDOWS KITS\8.1\INCLUDE\UM\ERRHANDLINGAPI.H
C:\PROGRAM FILES (X86)\WINDOWS KITS\8.1\INCLUDE\UM\FIBERSAPI.H
C:\PROGRAM FILES (X86)\WINDOWS KITS\8.1\INCLUDE\UM\NAMEDPIPEAPI.H
C:\PROGRAM FILES (X86)\WINDOWS KITS\8.1\INCLUDE\UM\PROFILEAPI.H
C:\PROGRAM FILES (X86)\WINDOWS KITS\8.1\INCLUDE\UM\HEAPAPI.H
C:\PROGRAM FILES (X86)\WINDOWS KITS\8.1\INCLUDE\UM\IOAPISET.H
C:\PROGRAM FILES (X86)\WINDOWS KITS\8.1\INCLUDE\UM\SYNCHAPI.H
C:\PROGRAM FILES (X86)\WINDOWS KITS\8.1\INCLUDE\UM\INTERLOCKEDAPI.H
C:\PROGRAM FILES (X86)\WINDOWS KITS\8.1\INCLUDE\UM\PROCESSTHREADSAPI.H
C:\PROGRAM FILES (X86)\WINDOWS KITS\8.1\INCLUDE\UM\SYSINFOAPI.H
C:\PROGRAM FILES (X86)\WINDOWS KITS\8.1\INCLUDE\UM\MEMORYAPI.H
C:\PROGRAM FILES (X86)\WINDOWS KITS\8.1\INCLUDE\UM\THREADPOOLLEGACYAPISET.H
C:\PROGRAM FILES (X86)\WINDOWS KITS\8.1\INCLUDE\UM\THREADPOOLAPISET.H
C:\PROGRAM FILES (X86)\WINDOWS KITS\8.1\INCLUDE\UM\BEMAPISET.H
C:\PROGRAM FILES (X86)\WINDOWS KITS\8.1\INCLUDE\UM\JOBAPI.H
C:\PROGRAM FILES (X86)\WINDOWS KITS\8.1\INCLUDE\UM\WOW64APISET.H
C:\PROGRAM FILES (X86)\WINDOWS KITS\8.1\INCLUDE\UM\LIBLOADERAPI.H
C:\PROGRAM FILES (X86)\WINDOWS KITS\8.1\INCLUDE\UM\SECURITYBASEAPI.H
C:\PROGRAM FILES (X86)\WINDOWS KITS\8.1\INCLUDE\UM\NAMESPACEAPI.H
C:\PROGRAM FILES (X86)\WINDOWS KITS\8.1\INCLUDE\UM\SYSTEMTOPOLOGYAPI.H
C:\PROGRAM FILES (X86)\WINDOWS KITS\8.1\INCLUDE\UM\PROCESSTOPOLOGYAPI.H
C:\PROGRAM FILES (X86)\WINDOWS KITS\8.1\INCLUDE\UM\SECURITYAPPCONTAINER.H
C:\PROGRAM FILES (X86)\WINDOWS KITS\8.1\INCLUDE\UM\REALTIMEAPISET.H
C:\PROGRAM FILES (X86)\WINDOWS KITS\8.1\INCLUDE\SHARED\WINERROR.H
C:\PROGRAM FILES (X86)\WINDOWS KITS\8.1\INCLUDE\UM\TIMEZONEAPI.H
C:\PROGRAM FILES (X86)\WINDOWS KITS\8.1\INCLUDE\UM\WINGDI.H
C:\PROGRAM FILES (X86)\WINDOWS KITS\8.1\INCLUDE\SHARED\PSHPACK1.H
C:\PROGRAM FILES (X86)\WINDOWS KITS\8.1\INCLUDE\UM\WINUSER.H
C:\PROGRAM FILES (X86)\WINDOWS KITS\8.1\INCLUDE\SHARED\TVOUT.H
C:\PROGRAM FILES (X86)\WINDOWS KITS\8.1\INCLUDE\UM\WINNLS.H
C:\PROGRAM FILES (X86)\WINDOWS KITS\8.1\INCLUDE\UM\DATETIMEAPI.H
C:\PROGRAM FILES (X86)\WINDOWS KITS\8.1\INCLUDE\UM\STRINGAPISET.H
C:\PROGRAM FILES (X86)\WINDOWS KITS\8.1\INCLUDE\UM\WINCON.H
C:\PROGRAM FILES (X86)\WINDOWS KITS\8.1\INCLUDE\UM\CONSOLEAPI.H
C:\PROGRAM FILES (X86)\WINDOWS KITS\8.1\INCLUDE\UM\WINVER.H
C:\PROGRAM FILES (X86)\WINDOWS KITS\8.1\INCLUDE\UM\VERRSRC.H
C:\PROGRAM FILES (X86)\WINDOWS KITS\8.1\INCLUDE\UM\WINREG.H
C:\PROGRAM FILES (X86)\WINDOWS KITS\8.1\INCLUDE\UM\REASON.H
C:\PROGRAM FILES (X86)\WINDOWS KITS\8.1\INCLUDE\UM\WINNETWK.H
C:\PROGRAM FILES (X86)\WINDOWS KITS\8.1\INCLUDE\SHARED\WNNC.H
C:\PROGRAM FILES (X86)\WINDOWS KITS\8.1\INCLUDE\SHARED\STRALIGN.H
C:\PROGRAM FILES (X86)\WINDOWS KITS\8.1\INCLUDE\UM\WINSVC.H
C:\PROGRAM FILES (X86)\WINDOWS KITS\8.1\INCLUDE\UM\MCX.H
C:\PROGRAM FILES (X86)\WINDOWS KITS\8.1\INCLUDE\UM\IMM.H
C:\PROGRAM FILES (X86)\WINDOWS KITS\8.1\INCLUDE\UM\IME_CMODES.H
D:\WORK\SCHOOL\BITBUCKET\GAP-275-01-PROGRAMMING-FOR-GAMES-2\MODULE_15\OPENGLDEMO\CML-1_0_4\CML\CML.H
D:\WORK\SCHOOL\BITBUCKET\GAP-275-01-PROGRAMMING-FOR-GAMES-2\MODULE_15\OPENGLDEMO\CML-1_0_4\CML\VECTOR.H
D:\WORK\SCHOOL\BITBUCKET\GAP-275-01-PROGRAMMING-FOR-GAMES-2\MODULE_15\OPENGLDEMO\CML-1_0_4\CML\CORE\COMMON.H
C:\PROGRAM FILES (X86)\MICROSOFT VISUAL STUDIO 12.0\VC\INCLUDE\CSTDLIB
C:\PROGRAM FILES (X86)\MICROSOFT VISUAL STUDIO 12.0\VC\INCLUDE\YVALS.H
C:\PROGRAM FILES (X86)\MICROSOFT VISUAL STUDIO 12.0\VC\INCLUDE\XKEYCHECK.H
C:\PROGRAM FILES (X86)\MICROSOFT VISUAL STUDIO 12.0\VC\INCLUDE\USE_ANSI.H
C:\PROGRAM FILES (X86)\MICROSOFT VISUAL STUDIO 12.0\VC\INCLUDE\STDLIB.H
C:\PROGRAM FILES (X86)\MICROSOFT VISUAL STUDIO 12.0\VC\INCLUDE\LIMITS.H
C:\PROGRAM FILES (X86)\MICROSOFT VISUAL STUDIO 12.0\VC\INCLUDE\CCTYPE
C:\PROGRAM FILES (X86)\MICROSOFT VISUAL STUDIO 12.0\VC\INCLUDE\CSTDDEF
C:\PROGRAM FILES (X86)\MICROSOFT VISUAL STUDIO 12.0\VC\INCLUDE\UTILITY
C:\PROGRAM FILES (X86)\MICROSOFT VISUAL STUDIO 12.0\VC\INCLUDE\XSTDDEF
C:\PROGRAM FILES (X86)\MICROSOFT VISUAL STUDIO 12.0\VC\INCLUDE\INITIALIZER_LIST
C:\PROGRAM FILES (X86)\MICROSOFT VISUAL STUDIO 12.0\VC\INCLUDE\XTR1COMMON
C:\PROGRAM FILES (X86)\MICROSOFT VISUAL STUDIO 12.0\VC\INCLUDE\IOSFWD
C:\PROGRAM FILES (X86)\MICROSOFT VISUAL STUDIO 12.0\VC\INCLUDE\CSTDIO
C:\PROGRAM FILES (X86)\MICROSOFT VISUAL STUDIO 12.0\VC\INCLUDE\STDIO.H
C:\PROGRAM FILES (X86)\MICROSOFT VISUAL STUDIO 12.0\VC\INCLUDE\SWPRINTF.INL
C:\PROGRAM FILES (X86)\MICROSOFT VISUAL STUDIO 12.0\VC\INCLUDE\CSTRING
C:\PROGRAM FILES (X86)\MICROSOFT VISUAL STUDIO 12.0\VC\INCLUDE\CWCHAR
C:\PROGRAM FILES (X86)\MICROSOFT VISUAL STUDIO 12.0\VC\INCLUDE\WCHAR.H
C:\PROGRAM FILES (X86)\MICROSOFT VISUAL STUDIO 12.0\VC\INCLUDE\WTIME.INL
C:\PROGRAM FILES (X86)\MICROSOFT VISUAL STUDIO 12.0\VC\INCLUDE\CRTDBG.H
C:\PROGRAM FILES (X86)\MICROSOFT VISUAL STUDIO 12.0\VC\INCLUDE\TYPE_TRAITS
C:\PROGRAM FILES (X86)\MICROSOFT VISUAL STUDIO 12.0\VC\INCLUDE\XREFWRAP
D:\WORK\SCHOOL\BITBUCKET\GAP-275-01-PROGRAMMING-FOR-GAMES-2\MODULE_15\OPENGLDEMO\CML-1_0_4\CML\DEFAULTS.H
C:\PROGRAM FILES (X86)\MICROSOFT VISUAL STUDIO 12.0\VC\INCLUDE\MEMORY
C:\PROGRAM FILES (X86)\MICROSOFT VISUAL STUDIO 12.0\VC\INCLUDE\XMEMORY
C:\PROGRAM FILES (X86)\MICROSOFT VISUAL STUDIO 12.0\VC\INCLUDE\XMEMORY0
C:\PROGRAM FILES (X86)\MICROSOFT VISUAL STUDIO 12.0\VC\INCLUDE\LIMITS
C:\PROGRAM FILES (X86)\MICROSOFT VISUAL STUDIO 12.0\VC\INCLUDE\YMATH.H
C:\PROGRAM FILES (X86)\MICROSOFT VISUAL STUDIO 12.0\VC\INCLUDE\CFLOAT
C:\PROGRAM FILES (X86)\MICROSOFT VISUAL STUDIO 12.0\VC\INCLUDE\FLOAT.H
C:\PROGRAM FILES (X86)\MICROSOFT VISUAL STUDIO 12.0\VC\INCLUDE\CRTWRN.H
C:\PROGRAM FILES (X86)\MICROSOFT VISUAL STUDIO 12.0\VC\INCLUDE\CLIMITS
C:\PROGRAM FILES (X86)\MICROSOFT VISUAL STUDIO 12.0\VC\INCLUDE\CMATH
C:\PROGRAM FILES (X86)\MICROSOFT VISUAL STUDIO 12.0\VC\INCLUDE\MATH.H
C:\PROGRAM FILES (X86)\MICROSOFT VISUAL STUDIO 12.0\VC\INCLUDE\XTGMATH.H
C:\PROGRAM FILES (X86)\MICROSOFT VISUAL STUDIO 12.0\VC\INCLUDE\NEW
C:\PROGRAM FILES (X86)\MICROSOFT VISUAL STUDIO 12.0\VC\INCLUDE\EXCEPTION
C:\PROGRAM FILES (X86)\MICROSOFT VISUAL STUDIO 12.0\VC\INCLUDE\EH.H
C:\PROGRAM FILES (X86)\MICROSOFT VISUAL STUDIO 12.0\VC\INCLUDE\XUTILITY
C:\PROGRAM FILES (X86)\MICROSOFT VISUAL STUDIO 12.0\VC\INCLUDE\XATOMIC0.H
C:\PROGRAM FILES (X86)\MICROSOFT VISUAL STUDIO 12.0\VC\INCLUDE\STDINT.H
C:\PROGRAM FILES (X86)\MICROSOFT VISUAL STUDIO 12.0\VC\INCLUDE\TYPEINFO
D:\WORK\SCHOOL\BITBUCKET\GAP-275-01-PROGRAMMING-FOR-GAMES-2\MODULE_15\OPENGLDEMO\CML-1_0_4\CML\UTIL.H
C:\PROGRAM FILES (X86)\MICROSOFT VISUAL STUDIO 12.0\VC\INCLUDE\ALGORITHM
D:\WORK\SCHOOL\BITBUCKET\GAP-275-01-PROGRAMMING-FOR-GAMES-2\MODULE_15\OPENGLDEMO\CML-1_0_4\CML\CONSTANTS.H
D:\WORK\SCHOOL\BITBUCKET\GAP-275-01-PROGRAMMING-FOR-GAMES-2\MODULE_15\OPENGLDEMO\CML-1_0_4\CML\VECTOR\VECTOR_OPS.H
D:\WORK\SCHOOL\BITBUCKET\GAP-275-01-PROGRAMMING-FOR-GAMES-2\MODULE_15\OPENGLDEMO\CML-1_0_4\CML\ET\SCALAR_OPS.H
D:\WORK\SCHOOL\BITBUCKET\GAP-275-01-PROGRAMMING-FOR-GAMES-2\MODULE_15\OPENGLDEMO\CML-1_0_4\CML\ET\TRAITS.H
D:\WORK\SCHOOL\BITBUCKET\GAP-275-01-PROGRAMMING-FOR-GAMES-2\MODULE_15\OPENGLDEMO\CML-1_0_4\CML\ET\TAGS.H
D:\WORK\SCHOOL\BITBUCKET\GAP-275-01-PROGRAMMING-FOR-GAMES-2\MODULE_15\OPENGLDEMO\CML-1_0_4\CML\ET\SCALAR_PROMOTIONS.H
C:\PROGRAM FILES (X86)\MICROSOFT VISUAL STUDIO 12.0\VC\INCLUDE\COMPLEX
C:\PROGRAM FILES (X86)\MICROSOFT VISUAL STUDIO 12.0\VC\INCLUDE\CCOMPLEX
C:\PROGRAM FILES (X86)\MICROSOFT VISUAL STUDIO 12.0\VC\INCLUDE\SSTREAM
C:\PROGRAM FILES (X86)\MICROSOFT VISUAL STUDIO 12.0\VC\INCLUDE\STRING
C:\PROGRAM FILES (X86)\MICROSOFT VISUAL STUDIO 12.0\VC\INCLUDE\ITERATOR
C:\PROGRAM FILES (X86)\MICROSOFT VISUAL STUDIO 12.0\VC\INCLUDE\ISTREAM
C:\PROGRAM FILES (X86)\MICROSOFT VISUAL STUDIO 12.0\VC\INCLUDE\OSTREAM
C:\PROGRAM FILES (X86)\MICROSOFT VISUAL STUDIO 12.0\VC\INCLUDE\IOS
C:\PROGRAM FILES (X86)\MICROSOFT VISUAL STUDIO 12.0\VC\INCLUDE\XLOCNUM
C:\PROGRAM FILES (X86)\MICROSOFT VISUAL STUDIO 12.0\VC\INCLUDE\STREAMBUF
C:\PROGRAM FILES (X86)\MICROSOFT VISUAL STUDIO 12.0\VC\INCLUDE\XIOSBASE
C:\PROGRAM FILES (X86)\MICROSOFT VISUAL STUDIO 12.0\VC\INCLUDE\XLOCALE
C:\PROGRAM FILES (X86)\MICROSOFT VISUAL STUDIO 12.0\VC\INCLUDE\STDEXCEPT
C:\PROGRAM FILES (X86)\MICROSOFT VISUAL STUDIO 12.0\VC\INCLUDE\XSTRING
C:\PROGRAM FILES (X86)\MICROSOFT VISUAL STUDIO 12.0\VC\INCLUDE\XLOCINFO
C:\PROGRAM FILES (X86)\MICROSOFT VISUAL STUDIO 12.0\VC\INCLUDE\XLOCINFO.H
C:\PROGRAM FILES (X86)\MICROSOFT VISUAL STUDIO 12.0\VC\INCLUDE\LOCALE.H
C:\PROGRAM FILES (X86)\MICROSOFT VISUAL STUDIO 12.0\VC\INCLUDE\XDEBUG
C:\PROGRAM FILES (X86)\MICROSOFT VISUAL STUDIO 12.0\VC\INCLUDE\XFACET
C:\PROGRAM FILES (X86)\MICROSOFT VISUAL STUDIO 12.0\VC\INCLUDE\SYSTEM_ERROR
C:\PROGRAM FILES (X86)\MICROSOFT VISUAL STUDIO 12.0\VC\INCLUDE\CERRNO
C:\PROGRAM FILES (X86)\MICROSOFT VISUAL STUDIO 12.0\VC\INCLUDE\ERRNO.H
C:\PROGRAM FILES (X86)\MICROSOFT VISUAL STUDIO 12.0\VC\INCLUDE\SHARE.H
C:\PROGRAM FILES (X86)\MICROSOFT VISUAL STUDIO 12.0\VC\INCLUDE\XCOMPLEX
D:\WORK\SCHOOL\BITBUCKET\GAP-275-01-PROGRAMMING-FOR-GAMES-2\MODULE_15\OPENGLDEMO\CML-1_0_4\CML\CORE\CML_META.H
D:\WORK\SCHOOL\BITBUCKET\GAP-275-01-PROGRAMMING-FOR-GAMES-2\MODULE_15\OPENGLDEMO\CML-1_0_4\CML\CORE\META\COMMON.H
D:\WORK\SCHOOL\BITBUCKET\GAP-275-01-PROGRAMMING-FOR-GAMES-2\MODULE_15\OPENGLDEMO\CML-1_0_4\CML\CORE\META\IF.H
D:\WORK\SCHOOL\BITBUCKET\GAP-275-01-PROGRAMMING-FOR-GAMES-2\MODULE_15\OPENGLDEMO\CML-1_0_4\CML\CORE\META\SWITCH.H
D:\WORK\SCHOOL\BITBUCKET\GAP-275-01-PROGRAMMING-FOR-GAMES-2\MODULE_15\OPENGLDEMO\CML-1_0_4\CML\VECTOR\VECTOR_EXPR.H
D:\WORK\SCHOOL\BITBUCKET\GAP-275-01-PROGRAMMING-FOR-GAMES-2\MODULE_15\OPENGLDEMO\CML-1_0_4\CML\ET\SIZE_CHECKING.H
D:\WORK\SCHOOL\BITBUCKET\GAP-275-01-PROGRAMMING-FOR-GAMES-2\MODULE_15\OPENGLDEMO\CML-1_0_4\CML\CORE\CML_ASSERT.H
D:\WORK\SCHOOL\BITBUCKET\GAP-275-01-PROGRAMMING-FOR-GAMES-2\MODULE_15\OPENGLDEMO\CML-1_0_4\CML\CORE\FWD.H
D:\WORK\SCHOOL\BITBUCKET\GAP-275-01-PROGRAMMING-FOR-GAMES-2\MODULE_15\OPENGLDEMO\CML-1_0_4\CML\VECTOR\VECTOR_TRAITS.H
D:\WORK\SCHOOL\BITBUCKET\GAP-275-01-PROGRAMMING-FOR-GAMES-2\MODULE_15\OPENGLDEMO\CML-1_0_4\CML\VECTOR\VECTOR_PROMOTIONS.H
D:\WORK\SCHOOL\BITBUCKET\GAP-275-01-PROGRAMMING-FOR-GAMES-2\MODULE_15\OPENGLDEMO\CML-1_0_4\CML\ET\ARRAY_PROMOTIONS.H
D:\WORK\SCHOOL\BITBUCKET\GAP-275-01-PROGRAMMING-FOR-GAMES-2\MODULE_15\OPENGLDEMO\CML-1_0_4\CML\VECTOR\VECOP_MACROS.H
D:\WORK\SCHOOL\BITBUCKET\GAP-275-01-PROGRAMMING-FOR-GAMES-2\MODULE_15\OPENGLDEMO\CML-1_0_4\CML\VECTOR\VECTOR_PRODUCTS.H
D:\WORK\SCHOOL\BITBUCKET\GAP-275-01-PROGRAMMING-FOR-GAMES-2\MODULE_15\OPENGLDEMO\CML-1_0_4\CML\VECTOR\VECTOR_UNROLLER.H
D:\WORK\SCHOOL\BITBUCKET\GAP-275-01-PROGRAMMING-FOR-GAMES-2\MODULE_15\OPENGLDEMO\CML-1_0_4\CML\MATRIX\MATRIX_EXPR.H
D:\WORK\SCHOOL\BITBUCKET\GAP-275-01-PROGRAMMING-FOR-GAMES-2\MODULE_15\OPENGLDEMO\CML-1_0_4\CML\MATRIX\MATRIX_TRAITS.H
D:\WORK\SCHOOL\BITBUCKET\GAP-275-01-PROGRAMMING-FOR-GAMES-2\MODULE_15\OPENGLDEMO\CML-1_0_4\CML\MATRIX\MATRIX_PROMOTIONS.H
D:\WORK\SCHOOL\BITBUCKET\GAP-275-01-PROGRAMMING-FOR-GAMES-2\MODULE_15\OPENGLDEMO\CML-1_0_4\CML\FIXED.H
D:\WORK\SCHOOL\BITBUCKET\GAP-275-01-PROGRAMMING-FOR-GAMES-2\MODULE_15\OPENGLDEMO\CML-1_0_4\CML\DYNAMIC.H
D:\WORK\SCHOOL\BITBUCKET\GAP-275-01-PROGRAMMING-FOR-GAMES-2\MODULE_15\OPENGLDEMO\CML-1_0_4\CML\VECTOR\VECTOR_FUNCTIONS.H
D:\WORK\SCHOOL\BITBUCKET\GAP-275-01-PROGRAMMING-FOR-GAMES-2\MODULE_15\OPENGLDEMO\CML-1_0_4\CML\VECTOR\VECTOR_COMPARISON.H
D:\WORK\SCHOOL\BITBUCKET\GAP-275-01-PROGRAMMING-FOR-GAMES-2\MODULE_15\OPENGLDEMO\CML-1_0_4\CML\VECTOR\VECTOR_PRINT.H
C:\PROGRAM FILES (X86)\MICROSOFT VISUAL STUDIO 12.0\VC\INCLUDE\IOSTREAM
D:\WORK\SCHOOL\BITBUCKET\GAP-275-01-PROGRAMMING-FOR-GAMES-2\MODULE_15\OPENGLDEMO\CML-1_0_4\CML\VECTOR\FIXED.H
D:\WORK\SCHOOL\BITBUCKET\GAP-275-01-PROGRAMMING-FOR-GAMES-2\MODULE_15\OPENGLDEMO\CML-1_0_4\CML\CORE\FIXED_1D.H
D:\WORK\SCHOOL\BITBUCKET\GAP-275-01-PROGRAMMING-FOR-GAMES-2\MODULE_15\OPENGLDEMO\CML-1_0_4\CML\VECTOR\CLASS_OPS.H
D:\WORK\SCHOOL\BITBUCKET\GAP-275-01-PROGRAMMING-FOR-GAMES-2\MODULE_15\OPENGLDEMO\CML-1_0_4\CML\VECTOR\EXTERNAL.H
D:\WORK\SCHOOL\BITBUCKET\GAP-275-01-PROGRAMMING-FOR-GAMES-2\MODULE_15\OPENGLDEMO\CML-1_0_4\CML\CORE\EXTERNAL_1D.H
D:\WORK\SCHOOL\BITBUCKET\GAP-275-01-PROGRAMMING-FOR-GAMES-2\MODULE_15\OPENGLDEMO\CML-1_0_4\CML\EXTERNAL.H
D:\WORK\SCHOOL\BITBUCKET\GAP-275-01-PROGRAMMING-FOR-GAMES-2\MODULE_15\OPENGLDEMO\CML-1_0_4\CML\VECTOR\DYNAMIC.H
D:\WORK\SCHOOL\BITBUCKET\GAP-275-01-PROGRAMMING-FOR-GAMES-2\MODULE_15\OPENGLDEMO\CML-1_0_4\CML\CORE\DYNAMIC_1D.H
D:\WORK\SCHOOL\BITBUCKET\GAP-275-01-PROGRAMMING-FOR-GAMES-2\MODULE_15\OPENGLDEMO\CML-1_0_4\CML\MATRIX.H
D:\WORK\SCHOOL\BITBUCKET\GAP-275-01-PROGRAMMING-FOR-GAMES-2\MODULE_15\OPENGLDEMO\CML-1_0_4\CML\MATRIX\MATRIX_OPS.H
D:\WORK\SCHOOL\BITBUCKET\GAP-275-01-PROGRAMMING-FOR-GAMES-2\MODULE_15\OPENGLDEMO\CML-1_0_4\CML\MATRIX\MATOP_MACROS.H
D:\WORK\SCHOOL\BITBUCKET\GAP-275-01-PROGRAMMING-FOR-GAMES-2\MODULE_15\OPENGLDEMO\CML-1_0_4\CML\MATRIX\MATRIX_TRANSPOSE.H
D:\WORK\SCHOOL\BITBUCKET\GAP-275-01-PROGRAMMING-FOR-GAMES-2\MODULE_15\OPENGLDEMO\CML-1_0_4\CML\MATRIX\MATRIX_ROWCOL.H
D:\WORK\SCHOOL\BITBUCKET\GAP-275-01-PROGRAMMING-FOR-GAMES-2\MODULE_15\OPENGLDEMO\CML-1_0_4\CML\MATRIX\MATRIX_MUL.H
D:\WORK\SCHOOL\BITBUCKET\GAP-275-01-PROGRAMMING-FOR-GAMES-2\MODULE_15\OPENGLDEMO\CML-1_0_4\CML\MATVEC\MATVEC_MUL.H
D:\WORK\SCHOOL\BITBUCKET\GAP-275-01-PROGRAMMING-FOR-GAMES-2\MODULE_15\OPENGLDEMO\CML-1_0_4\CML\MATVEC\MATVEC_PROMOTIONS.H
D:\WORK\SCHOOL\BITBUCKET\GAP-275-01-PROGRAMMING-FOR-GAMES-2\MODULE_15\OPENGLDEMO\CML-1_0_4\CML\MATRIX\MATRIX_FUNCTIONS.H
D:\WORK\SCHOOL\BITBUCKET\GAP-275-01-PROGRAMMING-FOR-GAMES-2\MODULE_15\OPENGLDEMO\CML-1_0_4\CML\MATRIX\MATRIX_COMPARISON.H
D:\WORK\SCHOOL\BITBUCKET\GAP-275-01-PROGRAMMING-FOR-GAMES-2\MODULE_15\OPENGLDEMO\CML-1_0_4\CML\MATRIX\LU.H
D:\WORK\SCHOOL\BITBUCKET\GAP-275-01-PROGRAMMING-FOR-GAMES-2\MODULE_15\OPENGLDEMO\CML-1_0_4\CML\MATRIX\INVERSE.H
C:\PROGRAM FILES (X86)\MICROSOFT VISUAL STUDIO 12.0\VC\INCLUDE\VECTOR
D:\WORK\SCHOOL\BITBUCKET\GAP-275-01-PROGRAMMING-FOR-GAMES-2\MODULE_15\OPENGLDEMO\CML-1_0_4\CML\MATRIX\DETERMINANT.H
D:\WORK\SCHOOL\BITBUCKET\GAP-275-01-PROGRAMMING-FOR-GAMES-2\MODULE_15\OPENGLDEMO\CML-1_0_4\CML\MATRIX\MATRIX_PRINT.H
D:\WORK\SCHOOL\BITBUCKET\GAP-275-01-PROGRAMMING-FOR-GAMES-2\MODULE_15\OPENGLDEMO\CML-1_0_4\CML\MATRIX\FIXED.H
D:\WORK\SCHOOL\BITBUCKET\GAP-275-01-PROGRAMMING-FOR-GAMES-2\MODULE_15\OPENGLDEMO\CML-1_0_4\CML\CORE\FIXED_2D.H
D:\WORK\SCHOOL\BITBUCKET\GAP-275-01-PROGRAMMING-FOR-GAMES-2\MODULE_15\OPENGLDEMO\CML-1_0_4\CML\MATRIX\CLASS_OPS.H
D:\WORK\SCHOOL\BITBUCKET\GAP-275-01-PROGRAMMING-FOR-GAMES-2\MODULE_15\OPENGLDEMO\CML-1_0_4\CML\MATRIX\MATRIX_UNROLLER.H
D:\WORK\SCHOOL\BITBUCKET\GAP-275-01-PROGRAMMING-FOR-GAMES-2\MODULE_15\OPENGLDEMO\CML-1_0_4\CML\MATRIX\DYNAMIC.H
D:\WORK\SCHOOL\BITBUCKET\GAP-275-01-PROGRAMMING-FOR-GAMES-2\MODULE_15\OPENGLDEMO\CML-1_0_4\CML\CORE\DYNAMIC_2D.H
D:\WORK\SCHOOL\BITBUCKET\GAP-275-01-PROGRAMMING-FOR-GAMES-2\MODULE_15\OPENGLDEMO\CML-1_0_4\CML\MATRIX\EXTERNAL.H
D:\WORK\SCHOOL\BITBUCKET\GAP-275-01-PROGRAMMING-FOR-GAMES-2\MODULE_15\OPENGLDEMO\CML-1_0_4\CML\CORE\EXTERNAL_2D.H
D:\WORK\SCHOOL\BITBUCKET\GAP-275-01-PROGRAMMING-FOR-GAMES-2\MODULE_15\OPENGLDEMO\CML-1_0_4\CML\QUATERNION.H
D:\WORK\SCHOOL\BITBUCKET\GAP-275-01-PROGRAMMING-FOR-GAMES-2\MODULE_15\OPENGLDEMO\CML-1_0_4\CML\QUATERNION\QUATERNION_OPS.H
D:\WORK\SCHOOL\BITBUCKET\GAP-275-01-PROGRAMMING-FOR-GAMES-2\MODULE_15\OPENGLDEMO\CML-1_0_4\CML\QUATERNION\QUATERNION_EXPR.H
D:\WORK\SCHOOL\BITBUCKET\GAP-275-01-PROGRAMMING-FOR-GAMES-2\MODULE_15\OPENGLDEMO\CML-1_0_4\CML\MATHLIB\EPSILON.H
D:\WORK\SCHOOL\BITBUCKET\GAP-275-01-PROGRAMMING-FOR-GAMES-2\MODULE_15\OPENGLDEMO\CML-1_0_4\CML\QUATERNION\QUATERNION_TRAITS.H
D:\WORK\SCHOOL\BITBUCKET\GAP-275-01-PROGRAMMING-FOR-GAMES-2\MODULE_15\OPENGLDEMO\CML-1_0_4\CML\QUATERNION\QUATERNION_PROMOTIONS.H
D:\WORK\SCHOOL\BITBUCKET\GAP-275-01-PROGRAMMING-FOR-GAMES-2\MODULE_15\OPENGLDEMO\CML-1_0_4\CML\QUATERNION\QUATOP_MACROS.H
D:\WORK\SCHOOL\BITBUCKET\GAP-275-01-PROGRAMMING-FOR-GAMES-2\MODULE_15\OPENGLDEMO\CML-1_0_4\CML\QUATERNION\CONJUGATE.H
D:\WORK\SCHOOL\BITBUCKET\GAP-275-01-PROGRAMMING-FOR-GAMES-2\MODULE_15\OPENGLDEMO\CML-1_0_4\CML\QUATERNION\QUATERNION_MUL.H
D:\WORK\SCHOOL\BITBUCKET\GAP-275-01-PROGRAMMING-FOR-GAMES-2\MODULE_15\OPENGLDEMO\CML-1_0_4\CML\MATHLIB\CHECKING.H
D:\WORK\SCHOOL\BITBUCKET\GAP-275-01-PROGRAMMING-FOR-GAMES-2\MODULE_15\OPENGLDEMO\CML-1_0_4\CML\QUATERNION\QUATERNION_FUNCTIONS.H
D:\WORK\SCHOOL\BITBUCKET\GAP-275-01-PROGRAMMING-FOR-GAMES-2\MODULE_15\OPENGLDEMO\CML-1_0_4\CML\QUATERNION\QUATERNION_COMPARISON.H
D:\WORK\SCHOOL\BITBUCKET\GAP-275-01-PROGRAMMING-FOR-GAMES-2\MODULE_15\OPENGLDEMO\CML-1_0_4\CML\QUATERNION\INVERSE.H
D:\WORK\SCHOOL\BITBUCKET\GAP-275-01-PROGRAMMING-FOR-GAMES-2\MODULE_15\OPENGLDEMO\CML-1_0_4\CML\QUATERNION\QUATERNION.H
D:\WORK\SCHOOL\BITBUCKET\GAP-275-01-PROGRAMMING-FOR-GAMES-2\MODULE_15\OPENGLDEMO\CML-1_0_4\CML\QUATERNION\QUATERNION_DOT.H
D:\WORK\SCHOOL\BITBUCKET\GAP-275-01-PROGRAMMING-FOR-GAMES-2\MODULE_15\OPENGLDEMO\CML-1_0_4\CML\QUATERNION\QUATERNION_PRINT.H
D:\WORK\SCHOOL\BITBUCKET\GAP-275-01-PROGRAMMING-FOR-GAMES-2\MODULE_15\OPENGLDEMO\CML-1_0_4\CML\MATHLIB\MATHLIB.H
D:\WORK\SCHOOL\BITBUCKET\GAP-275-01-PROGRAMMING-FOR-GAMES-2\MODULE_15\OPENGLDEMO\CML-1_0_4\CML\MATHLIB\TYPEDEF.H
D:\WORK\SCHOOL\BITBUCKET\GAP-275-01-PROGRAMMING-FOR-GAMES-2\MODULE_15\OPENGLDEMO\CML-1_0_4\CML\MATHLIB\VECTOR_ANGLE.H
D:\WORK\SCHOOL\BITBUCKET\GAP-275-01-PROGRAMMING-FOR-GAMES-2\MODULE_15\OPENGLDEMO\CML-1_0_4\CML\MATHLIB\VECTOR_ORTHO.H
D:\WORK\SCHOOL\BITBUCKET\GAP-275-01-PROGRAMMING-FOR-GAMES-2\MODULE_15\OPENGLDEMO\CML-1_0_4\CML\MATHLIB\VECTOR_MISC.H
D:\WORK\SCHOOL\BITBUCKET\GAP-275-01-PROGRAMMING-FOR-GAMES-2\MODULE_15\OPENGLDEMO\CML-1_0_4\CML\MATHLIB\COORD_CONVERSION.H
D:\WORK\SCHOOL\BITBUCKET\GAP-275-01-PROGRAMMING-FOR-GAMES-2\MODULE_15\OPENGLDEMO\CML-1_0_4\CML\MATHLIB\HELPER.H
D:\WORK\SCHOOL\BITBUCKET\GAP-275-01-PROGRAMMING-FOR-GAMES-2\MODULE_15\OPENGLDEMO\CML-1_0_4\CML\MATHLIB\MISC.H
D:\WORK\SCHOOL\BITBUCKET\GAP-275-01-PROGRAMMING-FOR-GAMES-2\MODULE_15\OPENGLDEMO\CML-1_0_4\CML\MATHLIB\VECTOR_TRANSFORM.H
D:\WORK\SCHOOL\BITBUCKET\GAP-275-01-PROGRAMMING-FOR-GAMES-2\MODULE_15\OPENGLDEMO\CML-1_0_4\CML\MATHLIB\MATRIX_ORTHO.H
D:\WORK\SCHOOL\BITBUCKET\GAP-275-01-PROGRAMMING-FOR-GAMES-2\MODULE_15\OPENGLDEMO\CML-1_0_4\CML\MATHLIB\MATRIX_ROTATION.H
D:\WORK\SCHOOL\BITBUCKET\GAP-275-01-PROGRAMMING-FOR-GAMES-2\MODULE_15\OPENGLDEMO\CML-1_0_4\CML\MATHLIB\MATRIX_MISC.H
D:\WORK\SCHOOL\BITBUCKET\GAP-275-01-PROGRAMMING-FOR-GAMES-2\MODULE_15\OPENGLDEMO\CML-1_0_4\CML\MATHLIB\MATRIX_TRANSFORM.H
D:\WORK\SCHOOL\BITBUCKET\GAP-275-01-PROGRAMMING-FOR-GAMES-2\MODULE_15\OPENGLDEMO\CML-1_0_4\CML\MATHLIB\MATRIX_BASIS.H
D:\WORK\SCHOOL\BITBUCKET\GAP-275-01-PROGRAMMING-FOR-GAMES-2\MODULE_15\OPENGLDEMO\CML-1_0_4\CML\MATHLIB\MATRIX_TRANSLATION.H
D:\WORK\SCHOOL\BITBUCKET\GAP-275-01-PROGRAMMING-FOR-GAMES-2\MODULE_15\OPENGLDEMO\CML-1_0_4\CML\MATHLIB\MATRIX_PROJECTION.H
D:\WORK\SCHOOL\BITBUCKET\GAP-275-01-PROGRAMMING-FOR-GAMES-2\MODULE_15\OPENGLDEMO\CML-1_0_4\CML\MATHLIB\QUATERNION_BASIS.H
D:\WORK\SCHOOL\BITBUCKET\GAP-275-01-PROGRAMMING-FOR-GAMES-2\MODULE_15\OPENGLDEMO\CML-1_0_4\CML\MATHLIB\QUATERNION_ROTATION.H
D:\WORK\SCHOOL\BITBUCKET\GAP-275-01-PROGRAMMING-FOR-GAMES-2\MODULE_15\OPENGLDEMO\CML-1_0_4\CML\MATHLIB\INTERPOLATION.H
D:\WORK\SCHOOL\BITBUCKET\GAP-275-01-PROGRAMMING-FOR-GAMES-2\MODULE_15\OPENGLDEMO\CML-1_0_4\CML\MATHLIB\FRUSTUM.H
D:\WORK\SCHOOL\BITBUCKET\GAP-275-01-PROGRAMMING-FOR-GAMES-2\MODULE_15\OPENGLDEMO\CML-1_0_4\CML\MATHLIB\MATRIX_CONCAT.H
D:\WORK\SCHOOL\BITBUCKET\GAP-275-01-PROGRAMMING-FOR-GAMES-2\MODULE_15\OPENGLDEMO\CML-1_0_4\CML\MATHLIB\PROJECTION.H
D:\WORK\SCHOOL\BITBUCKET\GAP-275-01-PROGRAMMING-FOR-GAMES-2\MODULE_15\OPENGLDEMO\CML-1_0_4\CML\MATHLIB\PICKING.H
