^Z:\C++\GAP 275\OBJFILELOADER\DEBUG\MAIN.OBJ|Z:\C++\GAP 275\OBJFILELOADER\DEBUG\OBJFILE.OBJ|Z:\C++\GAP 275\OBJFILELOADER\DEBUG\TESTOBJFILE.OBJ
/OUT:"Z:\C++\GAP 275\OBJFILELOADER\DEBUG\OBJFILELOADER.EXE" /INCREMENTAL /NOLOGO kernel32.lib user32.lib gdi32.lib winspool.lib comdlg32.lib advapi32.lib shell32.lib ole32.lib oleaut32.lib uuid.lib odbc32.lib odbccp32.lib /MANIFEST /MANIFESTUAC:"level='asInvoker' uiAccess='false'" /manifest:embed /DEBUG /PDB:"Z:\C++\GAP 275\OBJFILELOADER\DEBUG\OBJFILELOADER.PDB" /SUBSYSTEM:CONSOLE /TLBID:1 /DYNAMICBASE /NXCOMPAT /IMPLIB:"Z:\C++\GAP 275\OBJFILELOADER\DEBUG\OBJFILELOADER.LIB" /MACHINE:X86 DEBUG\MAIN.OBJDEBUG\OBJFILE.OBJDEBUG\TESTOBJFILE.OBJ
^D:\OSIPOV\BITBUCKET\GAP-275-01-PROGRAMMING-FOR-GAMES-2\FROM_JAKUB\MODULE_8\OBJFILELOADER\OBJFILELOADER\DEBUG\MAIN.OBJ|D:\OSIPOV\BITBUCKET\GAP-275-01-PROGRAMMING-FOR-GAMES-2\FROM_JAKUB\MODULE_8\OBJFILELOADER\OBJFILELOADER\DEBUG\OBJFILE.OBJ|D:\OSIPOV\BITBUCKET\GAP-275-01-PROGRAMMING-FOR-GAMES-2\FROM_JAKUB\MODULE_8\OBJFILELOADER\OBJFILELOADER\DEBUG\TESTOBJFILE.OBJ
/OUT:"D:\OSIPOV\BITBUCKET\GAP-275-01-PROGRAMMING-FOR-GAMES-2\FROM_JAKUB\MODULE_8\OBJFILELOADER\OBJFILELOADER\DEBUG\OBJFILELOADER.EXE" /INCREMENTAL /NOLOGO kernel32.lib user32.lib gdi32.lib winspool.lib comdlg32.lib advapi32.lib shell32.lib ole32.lib oleaut32.lib uuid.lib odbc32.lib odbccp32.lib /MANIFEST /MANIFESTUAC:"level='asInvoker' uiAccess='false'" /manifest:embed /DEBUG /PDB:"D:\OSIPOV\BITBUCKET\GAP-275-01-PROGRAMMING-FOR-GAMES-2\FROM_JAKUB\MODULE_8\OBJFILELOADER\OBJFILELOADER\DEBUG\OBJFILELOADER.PDB" /SUBSYSTEM:CONSOLE /TLBID:1 /DYNAMICBASE /NXCOMPAT /IMPLIB:"D:\OSIPOV\BITBUCKET\GAP-275-01-PROGRAMMING-FOR-GAMES-2\FROM_JAKUB\MODULE_8\OBJFILELOADER\OBJFILELOADER\DEBUG\OBJFILELOADER.LIB" /MACHINE:X86 DEBUG\MAIN.OBJDEBUG\OBJFILE.OBJDEBUG\TESTOBJFILE.OBJ
