^D:\OSIPOV\BITBUCKET\GAP-275-01-PROGRAMMING-FOR-GAMES-2\MODULE_5\CLASSPROJECT\SDL_PLATFORMER\SDL_PLATFORMER\MAIN.CPP
D:\OSIPOV\BITBUCKET\GAP-275-01-PROGRAMMING-FOR-GAMES-2\MODULE_5\CLASSPROJECT\SDL_PLATFORMER\SDL_PLATFORMER\DEBUG\VC120.PDB
D:\OSIPOV\BITBUCKET\GAP-275-01-PROGRAMMING-FOR-GAMES-2\MODULE_5\CLASSPROJECT\SDL_PLATFORMER\SDL_PLATFORMER\DEBUG\VC120.IDB
D:\OSIPOV\BITBUCKET\GAP-275-01-PROGRAMMING-FOR-GAMES-2\MODULE_5\CLASSPROJECT\SDL_PLATFORMER\SDL_PLATFORMER\DEBUG\MAIN.OBJ
^D:\WORK\SCHOOL\BITBUCKET\GAP-275-01-PROGRAMMING-FOR-GAMES-2\MODULE_5\CLASSPROJECT\SDL_PLATFORMER\SDL_PLATFORMER\MAIN.CPP
D:\WORK\SCHOOL\BITBUCKET\GAP-275-01-PROGRAMMING-FOR-GAMES-2\MODULE_5\CLASSPROJECT\SDL_PLATFORMER\SDL_PLATFORMER\DEBUG\VC120.PDB
D:\WORK\SCHOOL\BITBUCKET\GAP-275-01-PROGRAMMING-FOR-GAMES-2\MODULE_5\CLASSPROJECT\SDL_PLATFORMER\SDL_PLATFORMER\DEBUG\VC120.IDB
D:\WORK\SCHOOL\BITBUCKET\GAP-275-01-PROGRAMMING-FOR-GAMES-2\MODULE_5\CLASSPROJECT\SDL_PLATFORMER\SDL_PLATFORMER\DEBUG\MAIN.OBJ
