^D:\OSIPOV\BITBUCKET\GAP-275-01-PROGRAMMING-FOR-GAMES-2\MIDTERM\TOWERDEFENSE\TOWERDEFENSE\BASE_CLASSES\BEHAVIOR.CPP
/c /ISDL2_image\include /ISDL2_mixer\include /ISDL2\include /ZI /nologo /W3 /WX- /sdl /Od /Oy- /D WIN32 /D _DEBUG /D _WINDOWS /D _UNICODE /D UNICODE /Gm /EHsc /RTC1 /MDd /GS /fp:precise /Zc:wchar_t /Zc:forScope /Fo"DEBUG\\" /Fd"DEBUG\VC120.PDB" /Gd /TP /analyze- D:\OSIPOV\BITBUCKET\GAP-275-01-PROGRAMMING-FOR-GAMES-2\MIDTERM\TOWERDEFENSE\TOWERDEFENSE\BASE_CLASSES\BEHAVIOR.CPP
^D:\OSIPOV\BITBUCKET\GAP-275-01-PROGRAMMING-FOR-GAMES-2\MIDTERM\TOWERDEFENSE\TOWERDEFENSE\BASE_CLASSES\GAMEPIECE.CPP
/c /ISDL2_image\include /ISDL2_mixer\include /ISDL2\include /ZI /nologo /W3 /WX- /sdl /Od /Oy- /D WIN32 /D _DEBUG /D _WINDOWS /D _UNICODE /D UNICODE /Gm /EHsc /RTC1 /MDd /GS /fp:precise /Zc:wchar_t /Zc:forScope /Fo"DEBUG\\" /Fd"DEBUG\VC120.PDB" /Gd /TP /analyze- D:\OSIPOV\BITBUCKET\GAP-275-01-PROGRAMMING-FOR-GAMES-2\MIDTERM\TOWERDEFENSE\TOWERDEFENSE\BASE_CLASSES\GAMEPIECE.CPP
^D:\OSIPOV\BITBUCKET\GAP-275-01-PROGRAMMING-FOR-GAMES-2\MIDTERM\TOWERDEFENSE\TOWERDEFENSE\COMPONENTS\COMPONENT.CPP
/c /ISDL2_image\include /ISDL2_mixer\include /ISDL2\include /ZI /nologo /W3 /WX- /sdl /Od /Oy- /D WIN32 /D _DEBUG /D _WINDOWS /D _UNICODE /D UNICODE /Gm /EHsc /RTC1 /MDd /GS /fp:precise /Zc:wchar_t /Zc:forScope /Fo"DEBUG\\" /Fd"DEBUG\VC120.PDB" /Gd /TP /analyze- D:\OSIPOV\BITBUCKET\GAP-275-01-PROGRAMMING-FOR-GAMES-2\MIDTERM\TOWERDEFENSE\TOWERDEFENSE\COMPONENTS\COMPONENT.CPP
^D:\OSIPOV\BITBUCKET\GAP-275-01-PROGRAMMING-FOR-GAMES-2\MIDTERM\TOWERDEFENSE\TOWERDEFENSE\COMPONENTS\INTERACTIBLECOMP.CPP
/c /ISDL2_image\include /ISDL2_mixer\include /ISDL2\include /ZI /nologo /W3 /WX- /sdl /Od /Oy- /D WIN32 /D _DEBUG /D _WINDOWS /D _UNICODE /D UNICODE /Gm /EHsc /RTC1 /MDd /GS /fp:precise /Zc:wchar_t /Zc:forScope /Fo"DEBUG\\" /Fd"DEBUG\VC120.PDB" /Gd /TP /analyze- D:\OSIPOV\BITBUCKET\GAP-275-01-PROGRAMMING-FOR-GAMES-2\MIDTERM\TOWERDEFENSE\TOWERDEFENSE\COMPONENTS\INTERACTIBLECOMP.CPP
^D:\OSIPOV\BITBUCKET\GAP-275-01-PROGRAMMING-FOR-GAMES-2\MIDTERM\TOWERDEFENSE\TOWERDEFENSE\ENEMIES\ENEMYBEHAVIOR.CPP
/c /ISDL2_image\include /ISDL2_mixer\include /ISDL2\include /ZI /nologo /W3 /WX- /sdl /Od /Oy- /D WIN32 /D _DEBUG /D _WINDOWS /D _UNICODE /D UNICODE /Gm /EHsc /RTC1 /MDd /GS /fp:precise /Zc:wchar_t /Zc:forScope /Fo"DEBUG\\" /Fd"DEBUG\VC120.PDB" /Gd /TP /analyze- D:\OSIPOV\BITBUCKET\GAP-275-01-PROGRAMMING-FOR-GAMES-2\MIDTERM\TOWERDEFENSE\TOWERDEFENSE\ENEMIES\ENEMYBEHAVIOR.CPP
^D:\OSIPOV\BITBUCKET\GAP-275-01-PROGRAMMING-FOR-GAMES-2\MIDTERM\TOWERDEFENSE\TOWERDEFENSE\FACTORY\GAMEOBJECTFACTORY.CPP
/c /ISDL2_image\include /ISDL2_mixer\include /ISDL2\include /ZI /nologo /W3 /WX- /sdl /Od /Oy- /D WIN32 /D _DEBUG /D _WINDOWS /D _UNICODE /D UNICODE /Gm /EHsc /RTC1 /MDd /GS /fp:precise /Zc:wchar_t /Zc:forScope /Fo"DEBUG\\" /Fd"DEBUG\VC120.PDB" /Gd /TP /analyze- D:\OSIPOV\BITBUCKET\GAP-275-01-PROGRAMMING-FOR-GAMES-2\MIDTERM\TOWERDEFENSE\TOWERDEFENSE\FACTORY\GAMEOBJECTFACTORY.CPP
^D:\OSIPOV\BITBUCKET\GAP-275-01-PROGRAMMING-FOR-GAMES-2\MIDTERM\TOWERDEFENSE\TOWERDEFENSE\GAME_FIELD\GAMEFIELD.CPP
/c /ISDL2_image\include /ISDL2_mixer\include /ISDL2\include /ZI /nologo /W3 /WX- /sdl /Od /Oy- /D WIN32 /D _DEBUG /D _WINDOWS /D _UNICODE /D UNICODE /Gm /EHsc /RTC1 /MDd /GS /fp:precise /Zc:wchar_t /Zc:forScope /Fo"DEBUG\\" /Fd"DEBUG\VC120.PDB" /Gd /TP /analyze- D:\OSIPOV\BITBUCKET\GAP-275-01-PROGRAMMING-FOR-GAMES-2\MIDTERM\TOWERDEFENSE\TOWERDEFENSE\GAME_FIELD\GAMEFIELD.CPP
^D:\OSIPOV\BITBUCKET\GAP-275-01-PROGRAMMING-FOR-GAMES-2\MIDTERM\TOWERDEFENSE\TOWERDEFENSE\MAIN.CPP
/c /ISDL2_image\include /ISDL2_mixer\include /ISDL2\include /ZI /nologo /W3 /WX- /sdl /Od /Oy- /D WIN32 /D _DEBUG /D _WINDOWS /D _UNICODE /D UNICODE /Gm /EHsc /RTC1 /MDd /GS /fp:precise /Zc:wchar_t /Zc:forScope /Fo"DEBUG\\" /Fd"DEBUG\VC120.PDB" /Gd /TP /analyze- D:\OSIPOV\BITBUCKET\GAP-275-01-PROGRAMMING-FOR-GAMES-2\MIDTERM\TOWERDEFENSE\TOWERDEFENSE\MAIN.CPP
^D:\OSIPOV\BITBUCKET\GAP-275-01-PROGRAMMING-FOR-GAMES-2\MIDTERM\TOWERDEFENSE\TOWERDEFENSE\PLAYER\PLAYER.CPP
/c /ISDL2_image\include /ISDL2_mixer\include /ISDL2\include /ZI /nologo /W3 /WX- /sdl /Od /Oy- /D WIN32 /D _DEBUG /D _WINDOWS /D _UNICODE /D UNICODE /Gm /EHsc /RTC1 /MDd /GS /fp:precise /Zc:wchar_t /Zc:forScope /Fo"DEBUG\\" /Fd"DEBUG\VC120.PDB" /Gd /TP /analyze- D:\OSIPOV\BITBUCKET\GAP-275-01-PROGRAMMING-FOR-GAMES-2\MIDTERM\TOWERDEFENSE\TOWERDEFENSE\PLAYER\PLAYER.CPP
^D:\OSIPOV\BITBUCKET\GAP-275-01-PROGRAMMING-FOR-GAMES-2\MIDTERM\TOWERDEFENSE\TOWERDEFENSE\RENDERER\RENDERER.CPP
/c /ISDL2_image\include /ISDL2_mixer\include /ISDL2\include /ZI /nologo /W3 /WX- /sdl /Od /Oy- /D WIN32 /D _DEBUG /D _WINDOWS /D _UNICODE /D UNICODE /Gm /EHsc /RTC1 /MDd /GS /fp:precise /Zc:wchar_t /Zc:forScope /Fo"DEBUG\\" /Fd"DEBUG\VC120.PDB" /Gd /TP /analyze- D:\OSIPOV\BITBUCKET\GAP-275-01-PROGRAMMING-FOR-GAMES-2\MIDTERM\TOWERDEFENSE\TOWERDEFENSE\RENDERER\RENDERER.CPP
^D:\OSIPOV\BITBUCKET\GAP-275-01-PROGRAMMING-FOR-GAMES-2\MIDTERM\TOWERDEFENSE\TOWERDEFENSE\RENDERER\RENDERERCOMP.CPP
/c /ISDL2_image\include /ISDL2_mixer\include /ISDL2\include /ZI /nologo /W3 /WX- /sdl /Od /Oy- /D WIN32 /D _DEBUG /D _WINDOWS /D _UNICODE /D UNICODE /Gm /EHsc /RTC1 /MDd /GS /fp:precise /Zc:wchar_t /Zc:forScope /Fo"DEBUG\\" /Fd"DEBUG\VC120.PDB" /Gd /TP /analyze- D:\OSIPOV\BITBUCKET\GAP-275-01-PROGRAMMING-FOR-GAMES-2\MIDTERM\TOWERDEFENSE\TOWERDEFENSE\RENDERER\RENDERERCOMP.CPP
^D:\OSIPOV\BITBUCKET\GAP-275-01-PROGRAMMING-FOR-GAMES-2\MIDTERM\TOWERDEFENSE\TOWERDEFENSE\STRUCTURES\BEHAVIORS\ARCHERTOWERBEHAVIOR.CPP
/c /ISDL2_image\include /ISDL2_mixer\include /ISDL2\include /ZI /nologo /W3 /WX- /sdl /Od /Oy- /D WIN32 /D _DEBUG /D _WINDOWS /D _UNICODE /D UNICODE /Gm /EHsc /RTC1 /MDd /GS /fp:precise /Zc:wchar_t /Zc:forScope /Fo"DEBUG\\" /Fd"DEBUG\VC120.PDB" /Gd /TP /analyze- D:\OSIPOV\BITBUCKET\GAP-275-01-PROGRAMMING-FOR-GAMES-2\MIDTERM\TOWERDEFENSE\TOWERDEFENSE\STRUCTURES\BEHAVIORS\ARCHERTOWERBEHAVIOR.CPP
^D:\OSIPOV\BITBUCKET\GAP-275-01-PROGRAMMING-FOR-GAMES-2\MIDTERM\TOWERDEFENSE\TOWERDEFENSE\STRUCTURES\PREJECTILES\PROJECTILE.CPP
/c /ISDL2_image\include /ISDL2_mixer\include /ISDL2\include /ZI /nologo /W3 /WX- /sdl /Od /Oy- /D WIN32 /D _DEBUG /D _WINDOWS /D _UNICODE /D UNICODE /Gm /EHsc /RTC1 /MDd /GS /fp:precise /Zc:wchar_t /Zc:forScope /Fo"DEBUG\\" /Fd"DEBUG\VC120.PDB" /Gd /TP /analyze- D:\OSIPOV\BITBUCKET\GAP-275-01-PROGRAMMING-FOR-GAMES-2\MIDTERM\TOWERDEFENSE\TOWERDEFENSE\STRUCTURES\PREJECTILES\PROJECTILE.CPP
^D:\OSIPOV\BITBUCKET\GAP-275-01-PROGRAMMING-FOR-GAMES-2\MIDTERM\TOWERDEFENSE\TOWERDEFENSE\STRUCTURES\STRUCTURE.CPP
/c /ISDL2_image\include /ISDL2_mixer\include /ISDL2\include /ZI /nologo /W3 /WX- /sdl /Od /Oy- /D WIN32 /D _DEBUG /D _WINDOWS /D _UNICODE /D UNICODE /Gm /EHsc /RTC1 /MDd /GS /fp:precise /Zc:wchar_t /Zc:forScope /Fo"DEBUG\\" /Fd"DEBUG\VC120.PDB" /Gd /TP /analyze- D:\OSIPOV\BITBUCKET\GAP-275-01-PROGRAMMING-FOR-GAMES-2\MIDTERM\TOWERDEFENSE\TOWERDEFENSE\STRUCTURES\STRUCTURE.CPP
^D:\OSIPOV\BITBUCKET\GAP-275-01-PROGRAMMING-FOR-GAMES-2\MIDTERM\TOWERDEFENSE\TOWERDEFENSE\SYSTEM\ENEMYMANAGER.CPP
/c /ISDL2_image\include /ISDL2_mixer\include /ISDL2\include /ZI /nologo /W3 /WX- /sdl /Od /Oy- /D WIN32 /D _DEBUG /D _WINDOWS /D _UNICODE /D UNICODE /Gm /EHsc /RTC1 /MDd /GS /fp:precise /Zc:wchar_t /Zc:forScope /Fo"DEBUG\\" /Fd"DEBUG\VC120.PDB" /Gd /TP /analyze- D:\OSIPOV\BITBUCKET\GAP-275-01-PROGRAMMING-FOR-GAMES-2\MIDTERM\TOWERDEFENSE\TOWERDEFENSE\SYSTEM\ENEMYMANAGER.CPP
^D:\OSIPOV\BITBUCKET\GAP-275-01-PROGRAMMING-FOR-GAMES-2\MIDTERM\TOWERDEFENSE\TOWERDEFENSE\SYSTEM\EVENTHANDLER.CPP
/c /ISDL2_image\include /ISDL2_mixer\include /ISDL2\include /ZI /nologo /W3 /WX- /sdl /Od /Oy- /D WIN32 /D _DEBUG /D _WINDOWS /D _UNICODE /D UNICODE /Gm /EHsc /RTC1 /MDd /GS /fp:precise /Zc:wchar_t /Zc:forScope /Fo"DEBUG\\" /Fd"DEBUG\VC120.PDB" /Gd /TP /analyze- D:\OSIPOV\BITBUCKET\GAP-275-01-PROGRAMMING-FOR-GAMES-2\MIDTERM\TOWERDEFENSE\TOWERDEFENSE\SYSTEM\EVENTHANDLER.CPP
^D:\OSIPOV\BITBUCKET\GAP-275-01-PROGRAMMING-FOR-GAMES-2\MIDTERM\TOWERDEFENSE\TOWERDEFENSE\SYSTEM\INPUTMANAGER.CPP
/c /ISDL2_image\include /ISDL2_mixer\include /ISDL2\include /ZI /nologo /W3 /WX- /sdl /Od /Oy- /D WIN32 /D _DEBUG /D _WINDOWS /D _UNICODE /D UNICODE /Gm /EHsc /RTC1 /MDd /GS /fp:precise /Zc:wchar_t /Zc:forScope /Fo"DEBUG\\" /Fd"DEBUG\VC120.PDB" /Gd /TP /analyze- D:\OSIPOV\BITBUCKET\GAP-275-01-PROGRAMMING-FOR-GAMES-2\MIDTERM\TOWERDEFENSE\TOWERDEFENSE\SYSTEM\INPUTMANAGER.CPP
^D:\OSIPOV\BITBUCKET\GAP-275-01-PROGRAMMING-FOR-GAMES-2\MIDTERM\TOWERDEFENSE\TOWERDEFENSE\SYSTEM\OBSERVERMANAGER.CPP
/c /ISDL2_image\include /ISDL2_mixer\include /ISDL2\include /ZI /nologo /W3 /WX- /sdl /Od /Oy- /D WIN32 /D _DEBUG /D _WINDOWS /D _UNICODE /D UNICODE /Gm /EHsc /RTC1 /MDd /GS /fp:precise /Zc:wchar_t /Zc:forScope /Fo"DEBUG\\" /Fd"DEBUG\VC120.PDB" /Gd /TP /analyze- D:\OSIPOV\BITBUCKET\GAP-275-01-PROGRAMMING-FOR-GAMES-2\MIDTERM\TOWERDEFENSE\TOWERDEFENSE\SYSTEM\OBSERVERMANAGER.CPP
^D:\OSIPOV\BITBUCKET\GAP-275-01-PROGRAMMING-FOR-GAMES-2\MIDTERM\TOWERDEFENSE\TOWERDEFENSE\SYSTEM\STRUCTUREMANAGER.CPP
/c /ISDL2_image\include /ISDL2_mixer\include /ISDL2\include /ZI /nologo /W3 /WX- /sdl /Od /Oy- /D WIN32 /D _DEBUG /D _WINDOWS /D _UNICODE /D UNICODE /Gm /EHsc /RTC1 /MDd /GS /fp:precise /Zc:wchar_t /Zc:forScope /Fo"DEBUG\\" /Fd"DEBUG\VC120.PDB" /Gd /TP /analyze- D:\OSIPOV\BITBUCKET\GAP-275-01-PROGRAMMING-FOR-GAMES-2\MIDTERM\TOWERDEFENSE\TOWERDEFENSE\SYSTEM\STRUCTUREMANAGER.CPP
^D:\OSIPOV\BITBUCKET\GAP-275-01-PROGRAMMING-FOR-GAMES-2\MIDTERM\TOWERDEFENSE\TOWERDEFENSE\TILES\BEHAVIORS\ENEMYSPAWNBEHAVIOR.CPP
/c /ISDL2_image\include /ISDL2_mixer\include /ISDL2\include /ZI /nologo /W3 /WX- /sdl /Od /Oy- /D WIN32 /D _DEBUG /D _WINDOWS /D _UNICODE /D UNICODE /Gm /EHsc /RTC1 /MDd /GS /fp:precise /Zc:wchar_t /Zc:forScope /Fo"DEBUG\\" /Fd"DEBUG\VC120.PDB" /Gd /TP /analyze- D:\OSIPOV\BITBUCKET\GAP-275-01-PROGRAMMING-FOR-GAMES-2\MIDTERM\TOWERDEFENSE\TOWERDEFENSE\TILES\BEHAVIORS\ENEMYSPAWNBEHAVIOR.CPP
^D:\OSIPOV\BITBUCKET\GAP-275-01-PROGRAMMING-FOR-GAMES-2\MIDTERM\TOWERDEFENSE\TOWERDEFENSE\TILES\BEHAVIORS\TILECASTLEBEHAVIOR.CPP
/c /ISDL2_image\include /ISDL2_mixer\include /ISDL2\include /ZI /nologo /W3 /WX- /sdl /Od /Oy- /D WIN32 /D _DEBUG /D _WINDOWS /D _UNICODE /D UNICODE /Gm /EHsc /RTC1 /MDd /GS /fp:precise /Zc:wchar_t /Zc:forScope /Fo"DEBUG\\" /Fd"DEBUG\VC120.PDB" /Gd /TP /analyze- D:\OSIPOV\BITBUCKET\GAP-275-01-PROGRAMMING-FOR-GAMES-2\MIDTERM\TOWERDEFENSE\TOWERDEFENSE\TILES\BEHAVIORS\TILECASTLEBEHAVIOR.CPP
^D:\OSIPOV\BITBUCKET\GAP-275-01-PROGRAMMING-FOR-GAMES-2\MIDTERM\TOWERDEFENSE\TOWERDEFENSE\TILES\BEHAVIORS\TILEROADBEHAVIOR.CPP
/c /ISDL2_image\include /ISDL2_mixer\include /ISDL2\include /ZI /nologo /W3 /WX- /sdl /Od /Oy- /D WIN32 /D _DEBUG /D _WINDOWS /D _UNICODE /D UNICODE /Gm /EHsc /RTC1 /MDd /GS /fp:precise /Zc:wchar_t /Zc:forScope /Fo"DEBUG\\" /Fd"DEBUG\VC120.PDB" /Gd /TP /analyze- D:\OSIPOV\BITBUCKET\GAP-275-01-PROGRAMMING-FOR-GAMES-2\MIDTERM\TOWERDEFENSE\TOWERDEFENSE\TILES\BEHAVIORS\TILEROADBEHAVIOR.CPP
^D:\OSIPOV\BITBUCKET\GAP-275-01-PROGRAMMING-FOR-GAMES-2\MIDTERM\TOWERDEFENSE\TOWERDEFENSE\TILES\BEHAVIORS\TOWERBASEBEHAVIOR.CPP
/c /ISDL2_image\include /ISDL2_mixer\include /ISDL2\include /ZI /nologo /W3 /WX- /sdl /Od /Oy- /D WIN32 /D _DEBUG /D _WINDOWS /D _UNICODE /D UNICODE /Gm /EHsc /RTC1 /MDd /GS /fp:precise /Zc:wchar_t /Zc:forScope /Fo"DEBUG\\" /Fd"DEBUG\VC120.PDB" /Gd /TP /analyze- D:\OSIPOV\BITBUCKET\GAP-275-01-PROGRAMMING-FOR-GAMES-2\MIDTERM\TOWERDEFENSE\TOWERDEFENSE\TILES\BEHAVIORS\TOWERBASEBEHAVIOR.CPP
^D:\OSIPOV\BITBUCKET\GAP-275-01-PROGRAMMING-FOR-GAMES-2\MIDTERM\TOWERDEFENSE\TOWERDEFENSE\TILES\TILE.CPP
/c /ISDL2_image\include /ISDL2_mixer\include /ISDL2\include /ZI /nologo /W3 /WX- /sdl /Od /Oy- /D WIN32 /D _DEBUG /D _WINDOWS /D _UNICODE /D UNICODE /Gm /EHsc /RTC1 /MDd /GS /fp:precise /Zc:wchar_t /Zc:forScope /Fo"DEBUG\\" /Fd"DEBUG\VC120.PDB" /Gd /TP /analyze- D:\OSIPOV\BITBUCKET\GAP-275-01-PROGRAMMING-FOR-GAMES-2\MIDTERM\TOWERDEFENSE\TOWERDEFENSE\TILES\TILE.CPP
^D:\OSIPOV\BITBUCKET\GAP-275-01-PROGRAMMING-FOR-GAMES-2\MIDTERM\TOWERDEFENSE\TOWERDEFENSE\WORLD\WORLD.CPP
/c /ISDL2_image\include /ISDL2_mixer\include /ISDL2\include /ZI /nologo /W3 /WX- /sdl /Od /Oy- /D WIN32 /D _DEBUG /D _WINDOWS /D _UNICODE /D UNICODE /Gm /EHsc /RTC1 /MDd /GS /fp:precise /Zc:wchar_t /Zc:forScope /Fo"DEBUG\\" /Fd"DEBUG\VC120.PDB" /Gd /TP /analyze- D:\OSIPOV\BITBUCKET\GAP-275-01-PROGRAMMING-FOR-GAMES-2\MIDTERM\TOWERDEFENSE\TOWERDEFENSE\WORLD\WORLD.CPP
^D:\OSIPOV\BITBUCKET\GAP-275-01-PROGRAMMING-FOR-GAMES-2\MIDTERM\TOWERDEFENSE\TOWERDEFENSE\SYSTEM\SOUNDMANAGER.CPP
/c /ISDL2_image\include /ISDL2_mixer\include /ISDL2\include /ZI /nologo /W3 /WX- /sdl /Od /Oy- /D WIN32 /D _DEBUG /D _WINDOWS /D _UNICODE /D UNICODE /Gm /EHsc /RTC1 /MDd /GS /fp:precise /Zc:wchar_t /Zc:forScope /Fo"DEBUG\\" /Fd"DEBUG\VC120.PDB" /Gd /TP /analyze- D:\OSIPOV\BITBUCKET\GAP-275-01-PROGRAMMING-FOR-GAMES-2\MIDTERM\TOWERDEFENSE\TOWERDEFENSE\SYSTEM\SOUNDMANAGER.CPP
