^D:\OSIPOV\GAP-275-01-PROGRAMMING-FOR-GAMES-2\MODULE_9\OPENGL_DEMO\OPENGL_DEMO\DEBUG\MAIN.OBJ
D:\OSIPOV\GAP-275-01-PROGRAMMING-FOR-GAMES-2\MODULE_9\OPENGL_DEMO\DEBUG\OPENGL_DEMO.ILK
D:\OSIPOV\GAP-275-01-PROGRAMMING-FOR-GAMES-2\MODULE_9\OPENGL_DEMO\DEBUG\OPENGL_DEMO.EXE
D:\OSIPOV\GAP-275-01-PROGRAMMING-FOR-GAMES-2\MODULE_9\OPENGL_DEMO\DEBUG\OPENGL_DEMO.PDB
^D:\OSIPOV\BITBUCKET\GAP-275-01-PROGRAMMING-FOR-GAMES-2\MODULE_9\OPENGL_DEMO\OPENGL_DEMO\DEBUG\MAIN.OBJ
D:\OSIPOV\BITBUCKET\GAP-275-01-PROGRAMMING-FOR-GAMES-2\MODULE_9\OPENGL_DEMO\DEBUG\OPENGL_DEMO.ILK
D:\OSIPOV\BITBUCKET\GAP-275-01-PROGRAMMING-FOR-GAMES-2\MODULE_9\OPENGL_DEMO\DEBUG\OPENGL_DEMO.EXE
D:\OSIPOV\BITBUCKET\GAP-275-01-PROGRAMMING-FOR-GAMES-2\MODULE_9\OPENGL_DEMO\DEBUG\OPENGL_DEMO.PDB
