^C:\USERS\YVY\DOCUMENTS\GAP-275-01-PROGRAMMING-FOR-GAMES-2\FINAL\OSIPOV_VADIM_FINAL\OSIPOV_VADIM_FINAL\DEBUG\CAMERA.OBJ|C:\USERS\YVY\DOCUMENTS\GAP-275-01-PROGRAMMING-FOR-GAMES-2\FINAL\OSIPOV_VADIM_FINAL\OSIPOV_VADIM_FINAL\DEBUG\MAIN.OBJ|C:\USERS\YVY\DOCUMENTS\GAP-275-01-PROGRAMMING-FOR-GAMES-2\FINAL\OSIPOV_VADIM_FINAL\OSIPOV_VADIM_FINAL\DEBUG\OBJECT.OBJ|C:\USERS\YVY\DOCUMENTS\GAP-275-01-PROGRAMMING-FOR-GAMES-2\FINAL\OSIPOV_VADIM_FINAL\OSIPOV_VADIM_FINAL\DEBUG\OBJREADER.OBJ|C:\USERS\YVY\DOCUMENTS\GAP-275-01-PROGRAMMING-FOR-GAMES-2\FINAL\OSIPOV_VADIM_FINAL\OSIPOV_VADIM_FINAL\DEBUG\PLANET.OBJ|C:\USERS\YVY\DOCUMENTS\GAP-275-01-PROGRAMMING-FOR-GAMES-2\FINAL\OSIPOV_VADIM_FINAL\OSIPOV_VADIM_FINAL\DEBUG\RENDERER.OBJ|C:\USERS\YVY\DOCUMENTS\GAP-275-01-PROGRAMMING-FOR-GAMES-2\FINAL\OSIPOV_VADIM_FINAL\OSIPOV_VADIM_FINAL\DEBUG\SHADER.OBJ
C:\USERS\YVY\DOCUMENTS\GAP-275-01-PROGRAMMING-FOR-GAMES-2\FINAL\OSIPOV_VADIM_FINAL\OSIPOV_VADIM_FINAL\SDL2\LIB\X86\SDL2.LIB
C:\USERS\YVY\DOCUMENTS\GAP-275-01-PROGRAMMING-FOR-GAMES-2\FINAL\OSIPOV_VADIM_FINAL\OSIPOV_VADIM_FINAL\SDL2\LIB\X86\SDL2MAIN.LIB
C:\USERS\YVY\DOCUMENTS\GAP-275-01-PROGRAMMING-FOR-GAMES-2\FINAL\OSIPOV_VADIM_FINAL\OSIPOV_VADIM_FINAL\GLEW-1.13.0\LIB\RELEASE\WIN32\GLEW32.LIB
C:\PROGRAM FILES (X86)\WINDOWS KITS\8.1\LIB\WINV6.3\UM\X86\OPENGL32.LIB
C:\PROGRAM FILES (X86)\WINDOWS KITS\8.1\LIB\WINV6.3\UM\X86\KERNEL32.LIB
C:\PROGRAM FILES (X86)\WINDOWS KITS\8.1\LIB\WINV6.3\UM\X86\USER32.LIB
C:\PROGRAM FILES (X86)\WINDOWS KITS\8.1\LIB\WINV6.3\UM\X86\GDI32.LIB
C:\PROGRAM FILES (X86)\WINDOWS KITS\8.1\LIB\WINV6.3\UM\X86\WINSPOOL.LIB
C:\PROGRAM FILES (X86)\WINDOWS KITS\8.1\LIB\WINV6.3\UM\X86\COMDLG32.LIB
C:\PROGRAM FILES (X86)\WINDOWS KITS\8.1\LIB\WINV6.3\UM\X86\ADVAPI32.LIB
C:\PROGRAM FILES (X86)\WINDOWS KITS\8.1\LIB\WINV6.3\UM\X86\SHELL32.LIB
C:\PROGRAM FILES (X86)\WINDOWS KITS\8.1\LIB\WINV6.3\UM\X86\OLE32.LIB
C:\PROGRAM FILES (X86)\WINDOWS KITS\8.1\LIB\WINV6.3\UM\X86\OLEAUT32.LIB
C:\PROGRAM FILES (X86)\WINDOWS KITS\8.1\LIB\WINV6.3\UM\X86\UUID.LIB
C:\PROGRAM FILES (X86)\WINDOWS KITS\8.1\LIB\WINV6.3\UM\X86\ODBC32.LIB
C:\PROGRAM FILES (X86)\WINDOWS KITS\8.1\LIB\WINV6.3\UM\X86\ODBCCP32.LIB
C:\USERS\YVY\DOCUMENTS\GAP-275-01-PROGRAMMING-FOR-GAMES-2\FINAL\OSIPOV_VADIM_FINAL\OSIPOV_VADIM_FINAL\DEBUG\CAMERA.OBJ
C:\USERS\YVY\DOCUMENTS\GAP-275-01-PROGRAMMING-FOR-GAMES-2\FINAL\OSIPOV_VADIM_FINAL\OSIPOV_VADIM_FINAL\DEBUG\RENDERER.OBJ
C:\USERS\YVY\DOCUMENTS\GAP-275-01-PROGRAMMING-FOR-GAMES-2\FINAL\OSIPOV_VADIM_FINAL\OSIPOV_VADIM_FINAL\DEBUG\MAIN.OBJ
C:\USERS\YVY\DOCUMENTS\GAP-275-01-PROGRAMMING-FOR-GAMES-2\FINAL\OSIPOV_VADIM_FINAL\OSIPOV_VADIM_FINAL\DEBUG\OBJECT.OBJ
C:\USERS\YVY\DOCUMENTS\GAP-275-01-PROGRAMMING-FOR-GAMES-2\FINAL\OSIPOV_VADIM_FINAL\OSIPOV_VADIM_FINAL\DEBUG\PLANET.OBJ
C:\USERS\YVY\DOCUMENTS\GAP-275-01-PROGRAMMING-FOR-GAMES-2\FINAL\OSIPOV_VADIM_FINAL\OSIPOV_VADIM_FINAL\DEBUG\OBJREADER.OBJ
C:\USERS\YVY\DOCUMENTS\GAP-275-01-PROGRAMMING-FOR-GAMES-2\FINAL\OSIPOV_VADIM_FINAL\OSIPOV_VADIM_FINAL\DEBUG\SHADER.OBJ
C:\WINDOWS\SYSTEM32\TZRES.DLL
C:\WINDOWS\GLOBALIZATION\SORTING\SORTDEFAULT.NLS
C:\PROGRAM FILES (X86)\MICROSOFT VISUAL STUDIO 12.0\VC\LIB\MSVCPRTD.LIB
C:\PROGRAM FILES (X86)\MICROSOFT VISUAL STUDIO 12.0\VC\LIB\MSVCRTD.LIB
C:\PROGRAM FILES (X86)\MICROSOFT VISUAL STUDIO 12.0\VC\LIB\OLDNAMES.LIB
C:\PROGRAM FILES (X86)\VISUAL LEAK DETECTOR\LIB\WIN32\VLD.LIB
C:\PROGRAM FILES (X86)\MICROSOFT VISUAL STUDIO 12.0\VC\LIB\MSVCRT.LIB
