^D:\OSIPOV\BITBUCKET\GAP-275-01-PROGRAMMING-FOR-GAMES-2\MODULE_12\OPENGLDEMO\DEBUG\MAIN.OBJ
/OUT:"D:\OSIPOV\BITBUCKET\GAP-275-01-PROGRAMMING-FOR-GAMES-2\MODULE_12\OPENGLDEMO\DEBUG\OPENGLDEMO.EXE" /INCREMENTAL /NOLOGO /LIBPATH:"glew-1.13.0\lib\Release\Win32" /LIBPATH:SDL2\lib\x86 SDL2.lib SDL2main.lib glew32.lib opengl32.lib kernel32.lib user32.lib gdi32.lib winspool.lib comdlg32.lib advapi32.lib shell32.lib ole32.lib oleaut32.lib uuid.lib odbc32.lib odbccp32.lib /MANIFEST /MANIFESTUAC:"level='asInvoker' uiAccess='false'" /manifest:embed /DEBUG /PDB:"D:\OSIPOV\BITBUCKET\GAP-275-01-PROGRAMMING-FOR-GAMES-2\MODULE_12\OPENGLDEMO\DEBUG\OPENGLDEMO.PDB" /SUBSYSTEM:WINDOWS /TLBID:1 /DYNAMICBASE /NXCOMPAT /IMPLIB:"D:\OSIPOV\BITBUCKET\GAP-275-01-PROGRAMMING-FOR-GAMES-2\MODULE_12\OPENGLDEMO\DEBUG\OPENGLDEMO.LIB" /MACHINE:X86 DEBUG\MAIN.OBJ
^D:\OSIPOV\BITBUCKET\GAP-275-01-PROGRAMMING-FOR-GAMES-2\MODULE_13\OPENGLDEMO\DEBUG\MAIN.OBJ
/OUT:"D:\OSIPOV\BITBUCKET\GAP-275-01-PROGRAMMING-FOR-GAMES-2\MODULE_13\OPENGLDEMO\DEBUG\OPENGLDEMO.EXE" /INCREMENTAL /NOLOGO /LIBPATH:"glew-1.13.0\lib\Release\Win32" /LIBPATH:SDL2\lib\x86 SDL2.lib SDL2main.lib glew32.lib opengl32.lib kernel32.lib user32.lib gdi32.lib winspool.lib comdlg32.lib advapi32.lib shell32.lib ole32.lib oleaut32.lib uuid.lib odbc32.lib odbccp32.lib /MANIFEST /MANIFESTUAC:"level='asInvoker' uiAccess='false'" /manifest:embed /DEBUG /PDB:"D:\OSIPOV\BITBUCKET\GAP-275-01-PROGRAMMING-FOR-GAMES-2\MODULE_13\OPENGLDEMO\DEBUG\OPENGLDEMO.PDB" /SUBSYSTEM:WINDOWS /TLBID:1 /DYNAMICBASE /NXCOMPAT /IMPLIB:"D:\OSIPOV\BITBUCKET\GAP-275-01-PROGRAMMING-FOR-GAMES-2\MODULE_13\OPENGLDEMO\DEBUG\OPENGLDEMO.LIB" /MACHINE:X86 DEBUG\MAIN.OBJ
^D:\OSIPOV\BITBUCKET\GAP-275-01-PROGRAMMING-FOR-GAMES-2\MODULE_14\OPENGLDEMO\DEBUG\MAIN.OBJ
/OUT:"D:\OSIPOV\BITBUCKET\GAP-275-01-PROGRAMMING-FOR-GAMES-2\MODULE_14\OPENGLDEMO\DEBUG\OPENGLDEMO.EXE" /INCREMENTAL /NOLOGO /LIBPATH:"glew-1.13.0\lib\Release\Win32" /LIBPATH:SDL2\lib\x86 SDL2.lib SDL2main.lib glew32.lib opengl32.lib kernel32.lib user32.lib gdi32.lib winspool.lib comdlg32.lib advapi32.lib shell32.lib ole32.lib oleaut32.lib uuid.lib odbc32.lib odbccp32.lib /MANIFEST /MANIFESTUAC:"level='asInvoker' uiAccess='false'" /manifest:embed /DEBUG /PDB:"D:\OSIPOV\BITBUCKET\GAP-275-01-PROGRAMMING-FOR-GAMES-2\MODULE_14\OPENGLDEMO\DEBUG\OPENGLDEMO.PDB" /SUBSYSTEM:WINDOWS /TLBID:1 /DYNAMICBASE /NXCOMPAT /IMPLIB:"D:\OSIPOV\BITBUCKET\GAP-275-01-PROGRAMMING-FOR-GAMES-2\MODULE_14\OPENGLDEMO\DEBUG\OPENGLDEMO.LIB" /MACHINE:X86 DEBUG\MAIN.OBJ
