^D:\OSIPOV\GAP-275-01-PROGRAMMING-FOR-GAMES-2\FROM_JOSH\MODULE 08\CSVLOADER\CSVLOADER\MAIN.CPP
D:\OSIPOV\GAP-275-01-PROGRAMMING-FOR-GAMES-2\FROM_JOSH\MODULE 08\CSVLOADER\CSVLOADER\DEBUG\VC120.PDB
D:\OSIPOV\GAP-275-01-PROGRAMMING-FOR-GAMES-2\FROM_JOSH\MODULE 08\CSVLOADER\CSVLOADER\DEBUG\VC120.IDB
D:\OSIPOV\GAP-275-01-PROGRAMMING-FOR-GAMES-2\FROM_JOSH\MODULE 08\CSVLOADER\CSVLOADER\DEBUG\MAIN.OBJ
